# Written by Killerrabbit

# Code to change the display of approval rating

#Currently has a mistake as it should have 1-2-4-6-8-8-8, not 4-6-8-12-16
#should be fixed as well as making extreme values more extreme

###Commands:
#approval_rating_update = yes #updates the visually displayed approval rating if it has changed

##The following changes are relative. The higher approval rating the larger the decrease, and the inverse is true as well
#relative_change_pos_2 = yes --tiny increase in approval rating
#relative_change_pos_4 = yes --small increase in approval rating
#relative_change_pos_6 = yes --medium increase in approval rating
#relative_change_pos_8 = yes --large increase in approval rating
#relative_change_pos_10 = yes
#relative_change_pos_12 = yes
#relative_change_pos_16 = yes
#relative_change_pos_20 = yes --extreme increase in approval rating

#relative_change_neg_2 = yes --tiny decrease in approval rating
#relative_change_neg_4 = yes --small decrease in approval rating
#relative_change_neg_6 = yes --medium decrease in approval rating
#relative_change_neg_8 = yes --large decrease in approval rating
#relative_change_neg_10 = yes
#relative_change_neg_12 = yes
#relative_change_neg_16 = yes
#relative_change_neg_20 = yes --extreme decrease in approval rating

#init

init_approval_rating = {
	set_country_flag = { flag = approval_rating value = 50 }
		
	if = {
		limit = {
			or = {
				tag = FRA
			}
		}
		modify_country_flag = { flag = approval_rating value = -40 }
	}
	if = {
		limit = {
			or = {
				tag = ICE
			}
		}
		modify_country_flag = { flag = approval_rating value = -15 }
	}
	if = {
		limit = {
			or = {
				tag = KOR
			}
		}
		modify_country_flag = { flag = approval_rating value = -10 }
	}
	if = {
		limit = {
			or = {
				tag = USA
				tag = EGY
				tag = NZL
			}
		}
		modify_country_flag = { flag = approval_rating value = -5 }
	}
	if = {
		limit = {
			or = {
				tag = PER
				tag = GER
				tag = CHI
				tag = RAJ
				tag = TUR
			}
		}
		modify_country_flag = { flag = approval_rating value = 5 }
	}
	if = {
		limit = {
			or = {
				tag = SOV
			}
		}
		modify_country_flag = { flag = approval_rating value = 15 }
	}
	
	approval_rating_update = yes
	
		if = {
			limit = { 
				OR = { 
					has_idea = pop_000
					has_idea = pop_005
					has_idea = pop_010
				}
			}
				update_drift_pop_01 = yes
			
				else = {
					if = {
					limit = { 
						OR = { 
						has_idea = pop_015
						has_idea = pop_020
						has_idea = pop_025
						has_idea = pop_030
						}
					}
						update_drift_pop_02 = yes
					else = {
						if = {
						limit = { 
							OR = { 
							has_idea = pop_035
							has_idea = pop_040
							}
						}
						update_drift_pop_03 = yes
							
							else = {
								if = {
								limit = { 
									OR = { 
									has_idea = pop_060
									has_idea = pop_065
									has_idea = pop_070
									has_idea = pop_075
									}
								}
								update_drift_pop_04 = yes
		
									else = {
										if = {
										limit = { 
											OR = { 
											has_idea = pop_080
											has_idea = pop_085
											has_idea = pop_090
											has_idea = pop_095
											has_idea = pop_100
											}
										}
										update_drift_pop_05 = yes
										}
									}
								}
							}
						}
					}
				}
			}
		}
}

relative_change_pos_2 = {
	if = {
		limit = {
			and = {
				has_country_flag = {
					flag = approval_rating
					value > 79
				}
			}
		}
		modify_country_flag = { flag = approval_rating value = 1 }
		increase = yes approval_rating = yes pos_01 = yes
		approval_rating_update = yes
	}
	if = {
		limit = {
			and = {
				has_country_flag = {
					flag = approval_rating
					value > 59
				}
				has_country_flag = {
					flag = approval_rating
					value < 80
				}
			}
		}
		modify_country_flag = { flag = approval_rating value = 1 }
		increase = yes approval_rating = yes pos_01 = yes
		approval_rating_update = yes
	}
	if = {
		limit = {
			and = {
				has_country_flag = {
					flag = approval_rating
					value > 39
				}
				has_country_flag = {
					flag = approval_rating
					value < 60
				}
			}
		}
		modify_country_flag = { flag = approval_rating value = 2 }
		increase = yes approval_rating = yes pos_02 = yes
		approval_rating_update = yes
	}
	if = {
		limit = {
			and = {
				has_country_flag = {
					flag = approval_rating
					value > 19
				}
				has_country_flag = {
					flag = approval_rating
					value < 40
				}
			}
		}
		modify_country_flag = { flag = approval_rating value = 3 }
		increase = yes approval_rating = yes pos_03 = yes
		approval_rating_update = yes
	}
	if = {
		limit = {
				has_country_flag = {
					flag = approval_rating
					value < 20
				}
		}
		modify_country_flag = { flag = approval_rating value = 4 }
		increase = yes approval_rating = yes pos_04 = yes
		approval_rating_update = yes
	}
}

relative_change_pos_4 = {
	if = {
		limit = {
			and = {
				has_country_flag = {
					flag = approval_rating
					value > 79
				}
			}
		}
		modify_country_flag = { flag = approval_rating value = 2 }
		increase = yes approval_rating = yes pos_02 = yes
		approval_rating_update = yes
	}
	if = {
		limit = {
			and = {
				has_country_flag = {
					flag = approval_rating
					value > 59
				}
				has_country_flag = {
					flag = approval_rating
					value < 80
				}
			}
		}
		modify_country_flag = { flag = approval_rating value = 3 }
		increase = yes approval_rating = yes pos_03 = yes
		approval_rating_update = yes
	}
	if = {
		limit = {
			and = {
				has_country_flag = {
					flag = approval_rating
					value > 39
				}
				has_country_flag = {
					flag = approval_rating
					value < 60
				}
			}
		}
		modify_country_flag = { flag = approval_rating value = 4 }
		increase = yes approval_rating = yes pos_04 = yes
		approval_rating_update = yes
	}
	if = {
		limit = {
			and = {
				has_country_flag = {
					flag = approval_rating
					value > 19
				}
				has_country_flag = {
					flag = approval_rating
					value < 40
				}
			}
		}
		modify_country_flag = { flag = approval_rating value = 6 }
		increase = yes approval_rating = yes pos_06 = yes
		approval_rating_update = yes
	}
	if = {
		limit = {
				has_country_flag = {
					flag = approval_rating
					value < 20
				}
		}
		modify_country_flag = { flag = approval_rating value = 8 }
		increase = yes approval_rating = yes pos_08 = yes
		approval_rating_update = yes
	}
}

relative_change_pos_6 = {
	if = {
		limit = {
			and = {
				has_country_flag = {
					flag = approval_rating
					value > 79
				}
			}
		}
		
		modify_country_flag = { flag = approval_rating value = 3 }
		increase = yes approval_rating = yes pos_03 = yes
		approval_rating_update = yes
	}
	if = {
		limit = {
			and = {
				has_country_flag = {
					flag = approval_rating
					value > 59
				}
				has_country_flag = {
					flag = approval_rating
					value < 80
				}
			}
		}
		modify_country_flag = { flag = approval_rating value = 4 }
		increase = yes approval_rating = yes pos_04 = yes
		approval_rating_update = yes
	}
	if = {
		limit = {
			and = {
				has_country_flag = {
					flag = approval_rating
					value > 39
				}
				has_country_flag = {
					flag = approval_rating
					value < 60
				}
			}
		}
		modify_country_flag = { flag = approval_rating value = 6 }
		increase = yes approval_rating = yes pos_06 = yes
		approval_rating_update = yes
	}
	if = {
		limit = {
			and = {
				has_country_flag = {
					flag = approval_rating
					value > 19
				}
				has_country_flag = {
					flag = approval_rating
					value < 40
				}
			}
		}
		modify_country_flag = { flag = approval_rating value = 9 }
		increase = yes approval_rating = yes pos_09 = yes
		approval_rating_update = yes
	}
	if = {
		limit = {
				has_country_flag = {
					flag = approval_rating
					value < 20
				}
		}
		modify_country_flag = { flag = approval_rating value = 12 }
		increase = yes approval_rating = yes pos_12 = yes
		approval_rating_update = yes
	}
}

display_relative_change_pos_6 = {
	if = {
		limit = {
			and = {
				has_country_flag = {
					flag = approval_rating
					value > 79
				}
			}
		}
		increase = yes approval_rating = yes pos_03 = yes
	}
	if = {
		limit = {
			and = {
				has_country_flag = {
					flag = approval_rating
					value > 59
				}
				has_country_flag = {
					flag = approval_rating
					value < 80
				}
			}
		}
		increase = yes approval_rating = yes pos_04 = yes
	}
	if = {
		limit = {
			and = {
				has_country_flag = {
					flag = approval_rating
					value > 39
				}
				has_country_flag = {
					flag = approval_rating
					value < 60
				}
			}
		}
		increase = yes approval_rating = yes pos_06 = yes
	}
	if = {
		limit = {
			and = {
				has_country_flag = {
					flag = approval_rating
					value > 19
				}
				has_country_flag = {
					flag = approval_rating
					value < 40
				}
			}
		}
		increase = yes approval_rating = yes pos_09 = yes
	}
	if = {
		limit = {
				has_country_flag = {
					flag = approval_rating
					value < 20
				}
		}
		increase = yes approval_rating = yes pos_12 = yes
	}
}

relative_change_pos_8 = {
	if = {
		limit = {
			and = {
				has_country_flag = {
					flag = approval_rating
					value > 79
				}
			}
		}
		
		modify_country_flag = { flag = approval_rating value = 4 }
		increase = yes approval_rating = yes pos_04 = yes
		approval_rating_update = yes
	}
	if = {
		limit = {
			and = {
				has_country_flag = {
					flag = approval_rating
					value > 59
				}
				has_country_flag = {
					flag = approval_rating
					value < 80
				}
			}
		}
		modify_country_flag = { flag = approval_rating value = 6 }
		increase = yes approval_rating = yes pos_06 = yes
		approval_rating_update = yes
	}
	if = {
		limit = {
			and = {
				has_country_flag = {
					flag = approval_rating
					value > 39
				}
				has_country_flag = {
					flag = approval_rating
					value < 60
				}
			}
		}
		modify_country_flag = { flag = approval_rating value = 8 }
		increase = yes approval_rating = yes pos_08 = yes
		approval_rating_update = yes
	}
	if = {
		limit = {
			and = {
				has_country_flag = {
					flag = approval_rating
					value > 19
				}
				has_country_flag = {
					flag = approval_rating
					value < 40
				}
			}
		}
		modify_country_flag = { flag = approval_rating value = 12 }
		increase = yes approval_rating = yes pos_12 = yes
		approval_rating_update = yes
	}
	if = {
		limit = {
				has_country_flag = {
					flag = approval_rating
					value < 20
				}
		}
		modify_country_flag = { flag = approval_rating value = 16 }
		increase = yes approval_rating = yes pos_16 = yes
		approval_rating_update = yes
	}
}

relative_change_pos_10 = {
	if = {
		limit = {
			and = {
				has_country_flag = {
					flag = approval_rating
					value > 79
				}
			}
		}
		modify_country_flag = { flag = approval_rating value = 5 }
		increase = yes approval_rating = yes pos_05 = yes
		approval_rating_update = yes
	}
	if = {
		limit = {
			and = {
				has_country_flag = {
					flag = approval_rating
					value > 59
				}
				has_country_flag = {
					flag = approval_rating
					value < 80
				}
			}
		}
		modify_country_flag = { flag = approval_rating value = 7 }
		increase = yes approval_rating = yes pos_07 = yes
		approval_rating_update = yes
	}
	if = {
		limit = {
			and = {
				has_country_flag = {
					flag = approval_rating
					value > 39
				}
				has_country_flag = {
					flag = approval_rating
					value < 60
				}
			}
		}
		modify_country_flag = { flag = approval_rating value = 10 }
		increase = yes approval_rating = yes pos_10 = yes
		approval_rating_update = yes
	}
	if = {
		limit = {
			and = {
				has_country_flag = {
					flag = approval_rating
					value > 19
				}
				has_country_flag = {
					flag = approval_rating
					value < 40
				}
			}
		}
		modify_country_flag = { flag = approval_rating value = 15 }
		increase = yes approval_rating = yes pos_15 = yes
		approval_rating_update = yes
	}
	if = {
		limit = {
				has_country_flag = {
					flag = approval_rating
					value < 20
				}
		}
		modify_country_flag = { flag = approval_rating value = 20 }
		increase = yes approval_rating = yes pos_20 = yes
		approval_rating_update = yes
	}
}
relative_change_pos_12 = {
	if = {
		limit = {
			and = {
				has_country_flag = {
					flag = approval_rating
					value > 79
				}
			}
		}
		modify_country_flag = { flag = approval_rating value = 6 }
		increase = yes approval_rating = yes pos_06 = yes
		approval_rating_update = yes
	}
	if = {
		limit = {
			and = {
				has_country_flag = {
					flag = approval_rating
					value > 59
				}
				has_country_flag = {
					flag = approval_rating
					value < 80
				}
			}
		}
		modify_country_flag = { flag = approval_rating value = 9 }
		increase = yes approval_rating = yes pos_09 = yes
		approval_rating_update = yes
	}
	if = {
		limit = {
			and = {
				has_country_flag = {
					flag = approval_rating
					value > 39
				}
				has_country_flag = {
					flag = approval_rating
					value < 60
				}
			}
		}
		modify_country_flag = { flag = approval_rating value = 12 }
		increase = yes approval_rating = yes pos_12 = yes
		approval_rating_update = yes
	}
	if = {
		limit = {
			and = {
				has_country_flag = {
					flag = approval_rating
					value > 19
				}
				has_country_flag = {
					flag = approval_rating
					value < 40
				}
			}
		}
		modify_country_flag = { flag = approval_rating value = 18 }
		increase = yes approval_rating = yes pos_18 = yes
		approval_rating_update = yes
	}
	if = {
		limit = {
				has_country_flag = {
					flag = approval_rating
					value < 20
				}
		}
		modify_country_flag = { flag = approval_rating value = 24 }
		increase = yes approval_rating = yes pos_24 = yes
		approval_rating_update = yes
	}
}
relative_change_pos_16 = {
	if = {
		limit = {
			and = {
				has_country_flag = {
					flag = approval_rating
					value > 79
				}
			}
		}
		modify_country_flag = { flag = approval_rating value = 8 }
		increase = yes approval_rating = yes pos_08 = yes
		approval_rating_update = yes
	}
	if = {
		limit = {
			and = {
				has_country_flag = {
					flag = approval_rating
					value > 59
				}
				has_country_flag = {
					flag = approval_rating
					value < 80
				}
			}
		}
		modify_country_flag = { flag = approval_rating value = 12 }
		increase = yes approval_rating = yes pos_12 = yes
		approval_rating_update = yes
	}
	if = {
		limit = {
			and = {
				has_country_flag = {
					flag = approval_rating
					value > 39
				}
				has_country_flag = {
					flag = approval_rating
					value < 60
				}
			}
		}
		modify_country_flag = { flag = approval_rating value = 16 }
		increase = yes approval_rating = yes pos_16 = yes
		approval_rating_update = yes
	}
	if = {
		limit = {
			and = {
				has_country_flag = {
					flag = approval_rating
					value > 19
				}
				has_country_flag = {
					flag = approval_rating
					value < 40
				}
			}
		}
		modify_country_flag = { flag = approval_rating value = 24 }
		increase = yes approval_rating = yes pos_24 = yes
		approval_rating_update = yes
	}
	if = {
		limit = {
				has_country_flag = {
					flag = approval_rating
					value < 20
				}
		}
		modify_country_flag = { flag = approval_rating value = 32 }
		increase = yes approval_rating = yes pos_32 = yes
		approval_rating_update = yes
	}
}
relative_change_pos_20 = {
	if = {
		limit = {
			and = {
				has_country_flag = {
					flag = approval_rating
					value > 79
				}
			}
		}
		modify_country_flag = { flag = approval_rating value = 10 }
		increase = yes approval_rating = yes pos_10 = yes
		approval_rating_update = yes
	}
	if = {
		limit = {
			and = {
				has_country_flag = {
					flag = approval_rating
					value > 59
				}
				has_country_flag = {
					flag = approval_rating
					value < 80
				}
			}
		}
		modify_country_flag = { flag = approval_rating value = 15 }
		increase = yes approval_rating = yes pos_15 = yes
		approval_rating_update = yes
	}
	if = {
		limit = {
			and = {
				has_country_flag = {
					flag = approval_rating
					value > 39
				}
				has_country_flag = {
					flag = approval_rating
					value < 60
				}
			}
		}
		modify_country_flag = { flag = approval_rating value = 20 }
		increase = yes approval_rating = yes pos_20 = yes
		approval_rating_update = yes
	}
	if = {
		limit = {
			and = {
				has_country_flag = {
					flag = approval_rating
					value > 19
				}
				has_country_flag = {
					flag = approval_rating
					value < 40
				}
			}
		}
		modify_country_flag = { flag = approval_rating value = 30 }
		increase = yes approval_rating = yes pos_30 = yes
		approval_rating_update = yes
	}
	if = {
		limit = {
				has_country_flag = {
					flag = approval_rating
					value < 20
				}
		}
		modify_country_flag = { flag = approval_rating value = 40 }
		increase = yes approval_rating = yes pos_40 = yes
		approval_rating_update = yes
	}
}
#NEGATIVE
relative_change_neg_2 = {
	if = {
		limit = {
				has_country_flag = {
					flag = approval_rating
					value < 20
				}
		}
		modify_country_flag = { flag = approval_rating value = -1 }
		decrease = yes approval_rating = yes neg_01 = yes
		approval_rating_update = yes
	}
	if = {
		limit = {
			and = {
				has_country_flag = {
					flag = approval_rating
					value > 19
				}
				has_country_flag = {
					flag = approval_rating
					value < 40
				}
			}
		}
		modify_country_flag = { flag = approval_rating value = -1 }
		decrease = yes approval_rating = yes neg_01 = yes
		approval_rating_update = yes
	}
	if = {
		limit = {
			and = {
				has_country_flag = {
					flag = approval_rating
					value > 39
				}
				has_country_flag = {
					flag = approval_rating
					value < 60
				}
			}
		}
		modify_country_flag = { flag = approval_rating value = -2 }
		decrease = yes approval_rating = yes neg_02 = yes
		approval_rating_update = yes
	}
	if = {
		limit = {
			and = {
				has_country_flag = {
					flag = approval_rating
					value > 59
				}
				has_country_flag = {
					flag = approval_rating
					value < 80
				}
			}
		}
		modify_country_flag = { flag = approval_rating value = -3 }
		decrease = yes approval_rating = yes neg_03 = yes
		approval_rating_update = yes
	}
	if = {
		limit = {
			and = {
				has_country_flag = {
					flag = approval_rating
					value > 79
				}
			}
		}
		modify_country_flag = { flag = approval_rating value = -4 }
		decrease = yes approval_rating = yes neg_04 = yes
		approval_rating_update = yes
	}
}

relative_change_neg_4 = {
	if = {
		limit = {
				has_country_flag = {
					flag = approval_rating
					value < 20
				}
		}
		modify_country_flag = { flag = approval_rating value = -2 }
		decrease = yes approval_rating = yes neg_02 = yes
		approval_rating_update = yes
	}
	if = {
		limit = {
			and = {
				has_country_flag = {
					flag = approval_rating
					value > 19
				}
				has_country_flag = {
					flag = approval_rating
					value < 40
				}
			}
		}
		modify_country_flag = { flag = approval_rating value = -3 }
		decrease = yes approval_rating = yes neg_03 = yes
		approval_rating_update = yes
	}
	if = {
		limit = {
			and = {
				has_country_flag = {
					flag = approval_rating
					value > 39
				}
				has_country_flag = {
					flag = approval_rating
					value < 60
				}
			}
		}
		modify_country_flag = { flag = approval_rating value = -4 }
		decrease = yes approval_rating = yes neg_04 = yes
		approval_rating_update = yes
	}
	if = {
		limit = {
			and = {
				has_country_flag = {
					flag = approval_rating
					value > 59
				}
				has_country_flag = {
					flag = approval_rating
					value < 80
				}
			}
		}
		modify_country_flag = { flag = approval_rating value = -6 }
		decrease = yes approval_rating = yes neg_06 = yes
		approval_rating_update = yes
	}
	if = {
		limit = {
			and = {
				has_country_flag = {
					flag = approval_rating
					value > 79
				}
			}
		}
		modify_country_flag = { flag = approval_rating value = -8 }
		decrease = yes approval_rating = yes neg_08 = yes
		approval_rating_update = yes
	}
}

relative_change_neg_6 = {
	if = {
		limit = {
				has_country_flag = {
					flag = approval_rating
					value < 20
				}
		}
		modify_country_flag = { flag = approval_rating value = -2 }
		decrease = yes approval_rating = yes neg_02 = yes
		approval_rating_update = yes
	}
	if = {
		limit = {
			and = {
				has_country_flag = {
					flag = approval_rating
					value > 19
				}
				has_country_flag = {
					flag = approval_rating
					value < 40
				}
			}
		}
		modify_country_flag = { flag = approval_rating value = -4 }
		decrease = yes approval_rating = yes neg_04 = yes
		approval_rating_update = yes
	}
	if = {
		limit = {
			and = {
				has_country_flag = {
					flag = approval_rating
					value > 39
				}
				has_country_flag = {
					flag = approval_rating
					value < 60
				}
			}
		}
		modify_country_flag = { flag = approval_rating value = -6 }
		decrease = yes approval_rating = yes neg_06 = yes
		approval_rating_update = yes
	}
	if = {
		limit = {
			and = {
				has_country_flag = {
					flag = approval_rating
					value > 59
				}
				has_country_flag = {
					flag = approval_rating
					value < 80
				}
			}
		}
		modify_country_flag = { flag = approval_rating value = -8 }
		decrease = yes approval_rating = yes neg_08 = yes
		approval_rating_update = yes
	}
	if = {
		limit = {
			and = {
				has_country_flag = {
					flag = approval_rating
					value > 79
				}
			}
		}
		modify_country_flag = { flag = approval_rating value = -10 }
		decrease = yes approval_rating = yes neg_10 = yes
		approval_rating_update = yes
	}
}

display_relative_change_neg_6 = {
	if = {
		limit = {
				has_country_flag = {
					flag = approval_rating
					value < 20
				}
		}
		decrease = yes approval_rating = yes neg_02 = yes
	}
	if = {
		limit = {
			and = {
				has_country_flag = {
					flag = approval_rating
					value > 19
				}
				has_country_flag = {
					flag = approval_rating
					value < 40
				}
			}
		}
		decrease = yes approval_rating = yes neg_04 = yes
	}
	if = {
		limit = {
			and = {
				has_country_flag = {
					flag = approval_rating
					value > 39
				}
				has_country_flag = {
					flag = approval_rating
					value < 60
				}
			}
		}
		decrease = yes approval_rating = yes neg_06 = yes
	}
	if = {
		limit = {
			and = {
				has_country_flag = {
					flag = approval_rating
					value > 59
				}
				has_country_flag = {
					flag = approval_rating
					value < 80
				}
			}
		}
		decrease = yes approval_rating = yes neg_08 = yes
	}
	if = {
		limit = {
			and = {
				has_country_flag = {
					flag = approval_rating
					value > 79
				}
			}
		}
		decrease = yes approval_rating = yes neg_10 = yes
	}
}

relative_change_neg_8 = {
	if = {
		limit = {
				has_country_flag = {
					flag = approval_rating
					value < 20
				}
		}
		decrease = yes approval_rating = yes neg_03 = yes
		approval_rating_update = yes
	}
	if = {
		limit = {
			and = {
				has_country_flag = {
					flag = approval_rating
					value > 19
				}
				has_country_flag = {
					flag = approval_rating
					value < 40
				}
			}
		}
		modify_country_flag = { flag = approval_rating value = -6 }
		decrease = yes approval_rating = yes neg_06 = yes
		approval_rating_update = yes
	}
	if = {
		limit = {
			and = {
				has_country_flag = {
					flag = approval_rating
					value > 39
				}
				has_country_flag = {
					flag = approval_rating
					value < 60
				}
			}
		}
		modify_country_flag = { flag = approval_rating value = -8 }
		decrease = yes approval_rating = yes neg_08 = yes
		approval_rating_update = yes
	}
	if = {
		limit = {
			and = {
				has_country_flag = {
					flag = approval_rating
					value > 59
				}
				has_country_flag = {
					flag = approval_rating
					value < 80
				}
			}
		}
		modify_country_flag = { flag = approval_rating value = -12 }
		decrease = yes approval_rating = yes neg_12 = yes
		approval_rating_update = yes
	}
	if = {
		limit = {
			and = {
				has_country_flag = {
					flag = approval_rating
					value > 79
				}
			}
		}
		modify_country_flag = { flag = approval_rating value = -16 }
		decrease = yes approval_rating = yes neg_16 = yes
		approval_rating_update = yes
	}
}

relative_change_neg_10 = {
	if = {
		limit = {
				has_country_flag = {
					flag = approval_rating
					value < 20
				}
		}
		modify_country_flag = { flag = approval_rating value = -5 }
		decrease = yes approval_rating = yes neg_05 = yes
		approval_rating_update = yes
	}
	if = {
		limit = {
			and = {
				has_country_flag = {
					flag = approval_rating
					value > 19
				}
				has_country_flag = {
					flag = approval_rating
					value < 40
				}
			}
		}
		modify_country_flag = { flag = approval_rating value = -7 }
		decrease = yes approval_rating = yes neg_07 = yes
		approval_rating_update = yes
	}
	if = {
		limit = {
			and = {
				has_country_flag = {
					flag = approval_rating
					value > 39
				}
				has_country_flag = {
					flag = approval_rating
					value < 60
				}
			}
		}
		modify_country_flag = { flag = approval_rating value = -10 }
		decrease = yes approval_rating = yes neg_10 = yes
		approval_rating_update = yes
	}
	if = {
		limit = {
			and = {
				has_country_flag = {
					flag = approval_rating
					value > 59
				}
				has_country_flag = {
					flag = approval_rating
					value < 80
				}
			}
		}
		modify_country_flag = { flag = approval_rating value = -15 }
		decrease = yes approval_rating = yes neg_15 = yes
		approval_rating_update = yes
	}
	if = {
		limit = {
			and = {
				has_country_flag = {
					flag = approval_rating
					value > 79
				}
			}
		}
		modify_country_flag = { flag = approval_rating value = -20 }
		decrease = yes approval_rating = yes neg_20 = yes
		approval_rating_update = yes
	}
}
relative_change_neg_12 = {
	if = {
		limit = {
				has_country_flag = {
					flag = approval_rating
					value < 20
				}
		}
		modify_country_flag = { flag = approval_rating value = -6 }
		decrease = yes approval_rating = yes neg_06 = yes
		approval_rating_update = yes
	}
	if = {
		limit = {
			and = {
				has_country_flag = {
					flag = approval_rating
					value > 19
				}
				has_country_flag = {
					flag = approval_rating
					value < 40
				}
			}
		}
		modify_country_flag = { flag = approval_rating value = -9 }
		decrease = yes approval_rating = yes neg_09 = yes
		approval_rating_update = yes
	}
	if = {
		limit = {
			and = {
				has_country_flag = {
					flag = approval_rating
					value > 39
				}
				has_country_flag = {
					flag = approval_rating
					value < 60
				}
			}
		}
		modify_country_flag = { flag = approval_rating value = -12 }
		decrease = yes approval_rating = yes neg_12 = yes
		approval_rating_update = yes
	}
	if = {
		limit = {
			and = {
				has_country_flag = {
					flag = approval_rating
					value > 59
				}
				has_country_flag = {
					flag = approval_rating
					value < 80
				}
			}
		}
		modify_country_flag = { flag = approval_rating value = -18 }
		decrease = yes approval_rating = yes neg_18 = yes
		approval_rating_update = yes
	}
	if = {
		limit = {
			and = {
				has_country_flag = {
					flag = approval_rating
					value > 79
				}
			}
		}
		modify_country_flag = { flag = approval_rating value = -24 }
		decrease = yes approval_rating = yes neg_24 = yes
		approval_rating_update = yes
	}
}
relative_change_neg_16 = {
	if = {
		limit = {
				has_country_flag = {
					flag = approval_rating
					value < 20
				}
		}
		modify_country_flag = { flag = approval_rating value = -8 }
		decrease = yes approval_rating = yes neg_08 = yes
		approval_rating_update = yes
	}
	if = {
		limit = {
			and = {
				has_country_flag = {
					flag = approval_rating
					value > 19
				}
				has_country_flag = {
					flag = approval_rating
					value < 40
				}
			}
		}
		modify_country_flag = { flag = approval_rating value = -12 }
		decrease = yes approval_rating = yes neg_12 = yes
		approval_rating_update = yes
	}
	if = {
		limit = {
			and = {
				has_country_flag = {
					flag = approval_rating
					value > 39
				}
				has_country_flag = {
					flag = approval_rating
					value < 60
				}
			}
		}
		modify_country_flag = { flag = approval_rating value = -16 }
		decrease = yes approval_rating = yes neg_16 = yes
		approval_rating_update = yes
	}
	if = {
		limit = {
			and = {
				has_country_flag = {
					flag = approval_rating
					value > 59
				}
				has_country_flag = {
					flag = approval_rating
					value < 80
				}
			}
		}
		modify_country_flag = { flag = approval_rating value = -24 }
		decrease = yes approval_rating = yes neg_24 = yes
		approval_rating_update = yes
	}
	if = {
		limit = {
			and = {
				has_country_flag = {
					flag = approval_rating
					value > 79
				}
			}
		}
		modify_country_flag = { flag = approval_rating value = -32 }
		decrease = yes approval_rating = yes neg_32 = yes
		approval_rating_update = yes
	}
}
relative_change_neg_20 = {
	if = {
		limit = {
				has_country_flag = {
					flag = approval_rating
					value < 20
				}
		}
		modify_country_flag = { flag = approval_rating value = -10 }
		decrease = yes approval_rating = yes neg_10 = yes
		approval_rating_update = yes
	}
	if = {
		limit = {
			and = {
				has_country_flag = {
					flag = approval_rating
					value > 19
				}
				has_country_flag = {
					flag = approval_rating
					value < 40
				}
			}
		}
		modify_country_flag = { flag = approval_rating value = -15 }
		decrease = yes approval_rating = yes neg_15 = yes
		approval_rating_update = yes
	}
	if = {
		limit = {
			and = {
				has_country_flag = {
					flag = approval_rating
					value > 39
				}
				has_country_flag = {
					flag = approval_rating
					value < 60
				}
			}
		}
		modify_country_flag = { flag = approval_rating value = -20 }
		decrease = yes approval_rating = yes neg_20 = yes
		approval_rating_update = yes
	}
	if = {
		limit = {
			and = {
				has_country_flag = {
					flag = approval_rating
					value > 59
				}
				has_country_flag = {
					flag = approval_rating
					value < 80
				}
			}
		}
		modify_country_flag = { flag = approval_rating value = -30 }
		decrease = yes approval_rating = yes neg_30 = yes
		approval_rating_update = yes
	}
	if = {
		limit = {
			and = {
				has_country_flag = {
					flag = approval_rating
					value > 79
				}
			}
		}
		modify_country_flag = { flag = approval_rating value = -40 }
		decrease = yes approval_rating = yes neg_40 = yes
		approval_rating_update = yes
	}
}

approval_rating_update = {
	if = {
		limit = {
				has_country_flag = {
					flag = approval_rating
					value < 3
				}
		}
		change_to_pop_000 = yes
	}
	if = {
		limit = {
			and = {
				has_country_flag = {
					flag = approval_rating
					value > 2
				}
				has_country_flag = {
					flag = approval_rating
					value < 8
				}
			}
		}
		change_to_pop_005 = yes
	}
	if = {
		limit = {
			and = {
				has_country_flag = {
					flag = approval_rating
					value > 7
				}
				has_country_flag = {
					flag = approval_rating
					value < 13
				}
			}
		}
		change_to_pop_010 = yes
	}
	if = {
		limit = {
			and = {
				has_country_flag = {
					flag = approval_rating
					value > 12
				}
				has_country_flag = {
					flag = approval_rating
					value < 18
				}
			}
		}
		change_to_pop_015 = yes
	}
	if = {
		limit = {
			and = {
				has_country_flag = {
					flag = approval_rating
					value > 17
				}
				has_country_flag = {
					flag = approval_rating
					value < 23
				}
			}
		}
		change_to_pop_020 = yes
	}
	if = {
		limit = {
			and = {
				has_country_flag = {
					flag = approval_rating
					value > 22
				}
				has_country_flag = {
					flag = approval_rating
					value < 28
				}
			}
		}
		change_to_pop_025 = yes
	}
	if = {
		limit = {
			and = {
				has_country_flag = {
					flag = approval_rating
					value > 27
				}
				has_country_flag = {
					flag = approval_rating
					value < 33
				}
			}
		}
		change_to_pop_030 = yes
	}
	if = {
		limit = {
			and = {
				has_country_flag = {
					flag = approval_rating
					value > 32
				}
				has_country_flag = {
					flag = approval_rating
					value < 38
				}
			}
		}
		change_to_pop_035 = yes
	}
	if = {
		limit = {
			and = {
				has_country_flag = {
					flag = approval_rating
					value > 37
				}
				has_country_flag = {
					flag = approval_rating
					value < 43
				}
			}
		}
		change_to_pop_040 = yes
	}
	if = {
		limit = {
			and = {
				has_country_flag = {
					flag = approval_rating
					value > 42
				}
				has_country_flag = {
					flag = approval_rating
					value < 48
				}
			}
		}
		change_to_pop_045 = yes
	}
	if = {
		limit = {
			and = {
				has_country_flag = {
					flag = approval_rating
					value > 47
				}
				has_country_flag = {
					flag = approval_rating
					value < 53
				}
			}
		}
		change_to_pop_050 = yes
	}
	if = {
		limit = {
			and = {
				has_country_flag = {
					flag = approval_rating
					value > 52
				}
				has_country_flag = {
					flag = approval_rating
					value < 58
				}
			}
		}
		change_to_pop_055 = yes
	}
	if = {
		limit = {
			and = {
				has_country_flag = {
					flag = approval_rating
					value > 57
				}
				has_country_flag = {
					flag = approval_rating
					value < 63
				}
			}
		}
		change_to_pop_060 = yes
	}
	if = {
		limit = {
			and = {
				has_country_flag = {
					flag = approval_rating
					value > 62
				}
				has_country_flag = {
					flag = approval_rating
					value < 68
				}
			}
		}
		change_to_pop_065 = yes
	}
	if = {
		limit = {
			and = {
				has_country_flag = {
					flag = approval_rating
					value > 67
				}
				has_country_flag = {
					flag = approval_rating
					value < 73
				}
			}
		}
		change_to_pop_070 = yes
	}
	if = {
		limit = {
			and = {
				has_country_flag = {
					flag = approval_rating
					value > 72
				}
				has_country_flag = {
					flag = approval_rating
					value < 78
				}
			}
		}
		change_to_pop_075 = yes
	}
	if = {
		limit = {
			and = {
				has_country_flag = {
					flag = approval_rating
					value > 77
				}
				has_country_flag = {
					flag = approval_rating
					value < 83
				}
			}
		}
		change_to_pop_080 = yes
	}
	if = {
		limit = {
			and = {
				has_country_flag = {
					flag = approval_rating
					value > 82
				}
				has_country_flag = {
					flag = approval_rating
					value < 88
				}
			}
		}
		change_to_pop_085 = yes
	}
	if = {
		limit = {
			and = {
				has_country_flag = {
					flag = approval_rating
					value > 87
				}
				has_country_flag = {
					flag = approval_rating
					value < 93
				}
			}
		}
		change_to_pop_090 = yes
	}
	if = {
		limit = {
			and = {
				has_country_flag = {
					flag = approval_rating
					value > 92
				}
				has_country_flag = {
					flag = approval_rating
					value < 98
				}
			}
		}
		change_to_pop_095 = yes
	}
	if = {
		limit = {
				has_country_flag = {
					flag = approval_rating
					value > 97
				}
		}
		change_to_pop_100 = yes
	}
}


change_to_pop_000 = {
if = {
		limit = { has_idea = pop_005 }
		swap_ideas = { remove_idea = pop_005 add_idea = pop_000 }
}
if = {
		limit = { has_idea = pop_010 }
		swap_ideas = { remove_idea = pop_010 add_idea = pop_000 }
}
if = {
		limit = { has_idea = pop_015 }
		swap_ideas = { remove_idea = pop_015 add_idea = pop_000 }
}
if = {
		limit = { has_idea = pop_020 }
		swap_ideas = { remove_idea = pop_020 add_idea = pop_000 }
}
if = {
		limit = { has_idea = pop_025 }
		swap_ideas = { remove_idea = pop_025 add_idea = pop_000 }
}
if = {
		limit = { has_idea = pop_030 }
		swap_ideas = { remove_idea = pop_030 add_idea = pop_000 }
}
if = {
		limit = { has_idea = pop_035 }
		swap_ideas = { remove_idea = pop_035 add_idea = pop_000 }
}
if = {
		limit = { has_idea = pop_040 }
		swap_ideas = { remove_idea = pop_040 add_idea = pop_000 }
}
if = {
		limit = { has_idea = pop_045 }
		swap_ideas = { remove_idea = pop_045 add_idea = pop_000 }
}
if = {
		limit = { has_idea = pop_050 }
		swap_ideas = { remove_idea = pop_050 add_idea = pop_000 }
}
if = {
		limit = { has_idea = pop_055 }
		swap_ideas = { remove_idea = pop_055 add_idea = pop_000 }
}
if = {
		limit = { has_idea = pop_060 }
		swap_ideas = { remove_idea = pop_060 add_idea = pop_000 }
}
if = {
		limit = { has_idea = pop_065 }
		swap_ideas = { remove_idea = pop_065 add_idea = pop_000 }
}
if = {
		limit = { has_idea = pop_070 }
		swap_ideas = { remove_idea = pop_070 add_idea = pop_000 }
}
if = {
		limit = { has_idea = pop_075 }
		swap_ideas = { remove_idea = pop_075 add_idea = pop_000 }
}
if = {
		limit = { has_idea = pop_080 }
		swap_ideas = { remove_idea = pop_080 add_idea = pop_000 }
}
if = {
		limit = { has_idea = pop_085 }
		swap_ideas = { remove_idea = pop_085 add_idea = pop_000 }
}
if = {
		limit = { has_idea = pop_090 }
		swap_ideas = { remove_idea = pop_090 add_idea = pop_000 }
}
if = {
		limit = { has_idea = pop_095 }
		swap_ideas = { remove_idea = pop_095 add_idea = pop_000 }
}
if = {
		limit = { has_idea = pop_100 }
		swap_ideas = { remove_idea = pop_100 add_idea = pop_000 }
}
}
change_to_pop_005 = {
if = {
		limit = { has_idea = pop_000 }
		swap_ideas = { remove_idea = pop_000 add_idea = pop_005 }
}
if = {
		limit = { has_idea = pop_010 }
		swap_ideas = { remove_idea = pop_010 add_idea = pop_005 }
}
if = {
		limit = { has_idea = pop_015 }
		swap_ideas = { remove_idea = pop_015 add_idea = pop_005 }
}
if = {
		limit = { has_idea = pop_020 }
		swap_ideas = { remove_idea = pop_020 add_idea = pop_005 }
}
if = {
		limit = { has_idea = pop_025 }
		swap_ideas = { remove_idea = pop_025 add_idea = pop_005 }
}
if = {
		limit = { has_idea = pop_030 }
		swap_ideas = { remove_idea = pop_030 add_idea = pop_005 }
}
if = {
		limit = { has_idea = pop_035 }
		swap_ideas = { remove_idea = pop_035 add_idea = pop_005 }
}
if = {
		limit = { has_idea = pop_040 }
		swap_ideas = { remove_idea = pop_040 add_idea = pop_005 }
}
if = {
		limit = { has_idea = pop_045 }
		swap_ideas = { remove_idea = pop_045 add_idea = pop_005 }
}
if = {
		limit = { has_idea = pop_050 }
		swap_ideas = { remove_idea = pop_050 add_idea = pop_005 }
}
if = {
		limit = { has_idea = pop_055 }
		swap_ideas = { remove_idea = pop_055 add_idea = pop_005 }
}
if = {
		limit = { has_idea = pop_060 }
		swap_ideas = { remove_idea = pop_060 add_idea = pop_005 }
}
if = {
		limit = { has_idea = pop_065 }
		swap_ideas = { remove_idea = pop_065 add_idea = pop_005 }
}
if = {
		limit = { has_idea = pop_070 }
		swap_ideas = { remove_idea = pop_070 add_idea = pop_005 }
}
if = {
		limit = { has_idea = pop_075 }
		swap_ideas = { remove_idea = pop_075 add_idea = pop_005 }
}
if = {
		limit = { has_idea = pop_080 }
		swap_ideas = { remove_idea = pop_080 add_idea = pop_005 }
}
if = {
		limit = { has_idea = pop_085 }
		swap_ideas = { remove_idea = pop_085 add_idea = pop_005 }
}
if = {
		limit = { has_idea = pop_090 }
		swap_ideas = { remove_idea = pop_090 add_idea = pop_005 }
}
if = {
		limit = { has_idea = pop_095 }
		swap_ideas = { remove_idea = pop_095 add_idea = pop_005 }
}
if = {
		limit = { has_idea = pop_100 }
		swap_ideas = { remove_idea = pop_100 add_idea = pop_005 }
}
}
change_to_pop_010 = {
if = {
		limit = { has_idea = pop_000 }
		swap_ideas = { remove_idea = pop_000 add_idea = pop_010 }
}
if = {
		limit = { has_idea = pop_005 }
		swap_ideas = { remove_idea = pop_005 add_idea = pop_010 }
}
if = {
		limit = { has_idea = pop_015 }
		swap_ideas = { remove_idea = pop_015 add_idea = pop_010 }
}
if = {
		limit = { has_idea = pop_020 }
		swap_ideas = { remove_idea = pop_020 add_idea = pop_010 }
}
if = {
		limit = { has_idea = pop_025 }
		swap_ideas = { remove_idea = pop_025 add_idea = pop_010 }
}
if = {
		limit = { has_idea = pop_030 }
		swap_ideas = { remove_idea = pop_030 add_idea = pop_010 }
}
if = {
		limit = { has_idea = pop_035 }
		swap_ideas = { remove_idea = pop_035 add_idea = pop_010 }
}
if = {
		limit = { has_idea = pop_040 }
		swap_ideas = { remove_idea = pop_040 add_idea = pop_010 }
}
if = {
		limit = { has_idea = pop_045 }
		swap_ideas = { remove_idea = pop_045 add_idea = pop_010 }
}
if = {
		limit = { has_idea = pop_050 }
		swap_ideas = { remove_idea = pop_050 add_idea = pop_010 }
}
if = {
		limit = { has_idea = pop_055 }
		swap_ideas = { remove_idea = pop_055 add_idea = pop_010 }
}
if = {
		limit = { has_idea = pop_060 }
		swap_ideas = { remove_idea = pop_060 add_idea = pop_010 }
}
if = {
		limit = { has_idea = pop_065 }
		swap_ideas = { remove_idea = pop_065 add_idea = pop_010 }
}
if = {
		limit = { has_idea = pop_070 }
		swap_ideas = { remove_idea = pop_070 add_idea = pop_010 }
}
if = {
		limit = { has_idea = pop_075 }
		swap_ideas = { remove_idea = pop_075 add_idea = pop_010 }
}
if = {
		limit = { has_idea = pop_080 }
		swap_ideas = { remove_idea = pop_080 add_idea = pop_010 }
}
if = {
		limit = { has_idea = pop_085 }
		swap_ideas = { remove_idea = pop_085 add_idea = pop_010 }
}
if = {
		limit = { has_idea = pop_090 }
		swap_ideas = { remove_idea = pop_090 add_idea = pop_010 }
}
if = {
		limit = { has_idea = pop_095 }
		swap_ideas = { remove_idea = pop_095 add_idea = pop_010 }
}
if = {
		limit = { has_idea = pop_100 }
		swap_ideas = { remove_idea = pop_100 add_idea = pop_010 }
}
}
change_to_pop_015 = {
if = {
		limit = { has_idea = pop_000 }
		swap_ideas = { remove_idea = pop_000 add_idea = pop_015 }
}
if = {
		limit = { has_idea = pop_005 }
		swap_ideas = { remove_idea = pop_005 add_idea = pop_015 }
}
if = {
		limit = { has_idea = pop_010 }
		swap_ideas = { remove_idea = pop_010 add_idea = pop_015 }
}
if = {
		limit = { has_idea = pop_020 }
		swap_ideas = { remove_idea = pop_020 add_idea = pop_015 }
}
if = {
		limit = { has_idea = pop_025 }
		swap_ideas = { remove_idea = pop_025 add_idea = pop_015 }
}
if = {
		limit = { has_idea = pop_030 }
		swap_ideas = { remove_idea = pop_030 add_idea = pop_015 }
}
if = {
		limit = { has_idea = pop_035 }
		swap_ideas = { remove_idea = pop_035 add_idea = pop_015 }
}
if = {
		limit = { has_idea = pop_040 }
		swap_ideas = { remove_idea = pop_040 add_idea = pop_015 }
}
if = {
		limit = { has_idea = pop_045 }
		swap_ideas = { remove_idea = pop_045 add_idea = pop_015 }
}
if = {
		limit = { has_idea = pop_050 }
		swap_ideas = { remove_idea = pop_050 add_idea = pop_015 }
}
if = {
		limit = { has_idea = pop_055 }
		swap_ideas = { remove_idea = pop_055 add_idea = pop_015 }
}
if = {
		limit = { has_idea = pop_060 }
		swap_ideas = { remove_idea = pop_060 add_idea = pop_015 }
}
if = {
		limit = { has_idea = pop_065 }
		swap_ideas = { remove_idea = pop_065 add_idea = pop_015 }
}
if = {
		limit = { has_idea = pop_070 }
		swap_ideas = { remove_idea = pop_070 add_idea = pop_015 }
}
if = {
		limit = { has_idea = pop_075 }
		swap_ideas = { remove_idea = pop_075 add_idea = pop_015 }
}
if = {
		limit = { has_idea = pop_080 }
		swap_ideas = { remove_idea = pop_080 add_idea = pop_015 }
}
if = {
		limit = { has_idea = pop_085 }
		swap_ideas = { remove_idea = pop_085 add_idea = pop_015 }
}
if = {
		limit = { has_idea = pop_090 }
		swap_ideas = { remove_idea = pop_090 add_idea = pop_015 }
}
if = {
		limit = { has_idea = pop_095 }
		swap_ideas = { remove_idea = pop_095 add_idea = pop_015 }
}
if = {
		limit = { has_idea = pop_100 }
		swap_ideas = { remove_idea = pop_100 add_idea = pop_015 }
}
}
change_to_pop_020 = {
if = {
		limit = { has_idea = pop_000 }
		swap_ideas = { remove_idea = pop_000 add_idea = pop_020 }
}
if = {
		limit = { has_idea = pop_005 }
		swap_ideas = { remove_idea = pop_005 add_idea = pop_020 }
}
if = {
		limit = { has_idea = pop_010 }
		swap_ideas = { remove_idea = pop_010 add_idea = pop_020 }
}
if = {
		limit = { has_idea = pop_015 }
		swap_ideas = { remove_idea = pop_015 add_idea = pop_020 }
}
if = {
		limit = { has_idea = pop_025 }
		swap_ideas = { remove_idea = pop_025 add_idea = pop_020 }
}
if = {
		limit = { has_idea = pop_030 }
		swap_ideas = { remove_idea = pop_030 add_idea = pop_020 }
}
if = {
		limit = { has_idea = pop_035 }
		swap_ideas = { remove_idea = pop_035 add_idea = pop_020 }
}
if = {
		limit = { has_idea = pop_040 }
		swap_ideas = { remove_idea = pop_040 add_idea = pop_020 }
}
if = {
		limit = { has_idea = pop_045 }
		swap_ideas = { remove_idea = pop_045 add_idea = pop_020 }
}
if = {
		limit = { has_idea = pop_050 }
		swap_ideas = { remove_idea = pop_050 add_idea = pop_020 }
}
if = {
		limit = { has_idea = pop_055 }
		swap_ideas = { remove_idea = pop_055 add_idea = pop_020 }
}
if = {
		limit = { has_idea = pop_060 }
		swap_ideas = { remove_idea = pop_060 add_idea = pop_020 }
}
if = {
		limit = { has_idea = pop_065 }
		swap_ideas = { remove_idea = pop_065 add_idea = pop_020 }
}
if = {
		limit = { has_idea = pop_070 }
		swap_ideas = { remove_idea = pop_070 add_idea = pop_020 }
}
if = {
		limit = { has_idea = pop_075 }
		swap_ideas = { remove_idea = pop_075 add_idea = pop_020 }
}
if = {
		limit = { has_idea = pop_080 }
		swap_ideas = { remove_idea = pop_080 add_idea = pop_020 }
}
if = {
		limit = { has_idea = pop_085 }
		swap_ideas = { remove_idea = pop_085 add_idea = pop_020 }
}
if = {
		limit = { has_idea = pop_090 }
		swap_ideas = { remove_idea = pop_090 add_idea = pop_020 }
}
if = {
		limit = { has_idea = pop_095 }
		swap_ideas = { remove_idea = pop_095 add_idea = pop_020 }
}
if = {
		limit = { has_idea = pop_100 }
		swap_ideas = { remove_idea = pop_100 add_idea = pop_020 }
}
}
change_to_pop_025 = {
if = {
		limit = { has_idea = pop_000 }
		swap_ideas = { remove_idea = pop_000 add_idea = pop_025 }
}
if = {
		limit = { has_idea = pop_005 }
		swap_ideas = { remove_idea = pop_005 add_idea = pop_025 }
}
if = {
		limit = { has_idea = pop_010 }
		swap_ideas = { remove_idea = pop_010 add_idea = pop_025 }
}
if = {
		limit = { has_idea = pop_015 }
		swap_ideas = { remove_idea = pop_015 add_idea = pop_025 }
}
if = {
		limit = { has_idea = pop_020 }
		swap_ideas = { remove_idea = pop_020 add_idea = pop_025 }
}
if = {
		limit = { has_idea = pop_030 }
		swap_ideas = { remove_idea = pop_030 add_idea = pop_025 }
}
if = {
		limit = { has_idea = pop_035 }
		swap_ideas = { remove_idea = pop_035 add_idea = pop_025 }
}
if = {
		limit = { has_idea = pop_040 }
		swap_ideas = { remove_idea = pop_040 add_idea = pop_025 }
}
if = {
		limit = { has_idea = pop_045 }
		swap_ideas = { remove_idea = pop_045 add_idea = pop_025 }
}
if = {
		limit = { has_idea = pop_050 }
		swap_ideas = { remove_idea = pop_050 add_idea = pop_025 }
}
if = {
		limit = { has_idea = pop_055 }
		swap_ideas = { remove_idea = pop_055 add_idea = pop_025 }
}
if = {
		limit = { has_idea = pop_060 }
		swap_ideas = { remove_idea = pop_060 add_idea = pop_025 }
}
if = {
		limit = { has_idea = pop_065 }
		swap_ideas = { remove_idea = pop_065 add_idea = pop_025 }
}
if = {
		limit = { has_idea = pop_070 }
		swap_ideas = { remove_idea = pop_070 add_idea = pop_025 }
}
if = {
		limit = { has_idea = pop_075 }
		swap_ideas = { remove_idea = pop_075 add_idea = pop_025 }
}
if = {
		limit = { has_idea = pop_080 }
		swap_ideas = { remove_idea = pop_080 add_idea = pop_025 }
}
if = {
		limit = { has_idea = pop_085 }
		swap_ideas = { remove_idea = pop_085 add_idea = pop_025 }
}
if = {
		limit = { has_idea = pop_090 }
		swap_ideas = { remove_idea = pop_090 add_idea = pop_025 }
}
if = {
		limit = { has_idea = pop_095 }
		swap_ideas = { remove_idea = pop_095 add_idea = pop_025 }
}
if = {
		limit = { has_idea = pop_100 }
		swap_ideas = { remove_idea = pop_100 add_idea = pop_025 }
}
}
change_to_pop_030 = {
if = {
		limit = { has_idea = pop_000 }
		swap_ideas = { remove_idea = pop_000 add_idea = pop_030 }
}
if = {
		limit = { has_idea = pop_005 }
		swap_ideas = { remove_idea = pop_005 add_idea = pop_030 }
}
if = {
		limit = { has_idea = pop_010 }
		swap_ideas = { remove_idea = pop_010 add_idea = pop_030 }
}
if = {
		limit = { has_idea = pop_015 }
		swap_ideas = { remove_idea = pop_015 add_idea = pop_030 }
}
if = {
		limit = { has_idea = pop_020 }
		swap_ideas = { remove_idea = pop_020 add_idea = pop_030 }
}
if = {
		limit = { has_idea = pop_025 }
		swap_ideas = { remove_idea = pop_025 add_idea = pop_030 }
}
if = {
		limit = { has_idea = pop_035 }
		swap_ideas = { remove_idea = pop_035 add_idea = pop_030 }
}
if = {
		limit = { has_idea = pop_040 }
		swap_ideas = { remove_idea = pop_040 add_idea = pop_030 }
}
if = {
		limit = { has_idea = pop_045 }
		swap_ideas = { remove_idea = pop_045 add_idea = pop_030 }
}
if = {
		limit = { has_idea = pop_050 }
		swap_ideas = { remove_idea = pop_050 add_idea = pop_030 }
}
if = {
		limit = { has_idea = pop_055 }
		swap_ideas = { remove_idea = pop_055 add_idea = pop_030 }
}
if = {
		limit = { has_idea = pop_060 }
		swap_ideas = { remove_idea = pop_060 add_idea = pop_030 }
}
if = {
		limit = { has_idea = pop_065 }
		swap_ideas = { remove_idea = pop_065 add_idea = pop_030 }
}
if = {
		limit = { has_idea = pop_070 }
		swap_ideas = { remove_idea = pop_070 add_idea = pop_030 }
}
if = {
		limit = { has_idea = pop_075 }
		swap_ideas = { remove_idea = pop_075 add_idea = pop_030 }
}
if = {
		limit = { has_idea = pop_080 }
		swap_ideas = { remove_idea = pop_080 add_idea = pop_030 }
}
if = {
		limit = { has_idea = pop_085 }
		swap_ideas = { remove_idea = pop_085 add_idea = pop_030 }
}
if = {
		limit = { has_idea = pop_090 }
		swap_ideas = { remove_idea = pop_090 add_idea = pop_030 }
}
if = {
		limit = { has_idea = pop_095 }
		swap_ideas = { remove_idea = pop_095 add_idea = pop_030 }
}
if = {
		limit = { has_idea = pop_100 }
		swap_ideas = { remove_idea = pop_100 add_idea = pop_030 }
}
}
change_to_pop_035 = {
if = {
		limit = { has_idea = pop_000 }
		swap_ideas = { remove_idea = pop_000 add_idea = pop_035 }
}
if = {
		limit = { has_idea = pop_005 }
		swap_ideas = { remove_idea = pop_005 add_idea = pop_035 }
}
if = {
		limit = { has_idea = pop_010 }
		swap_ideas = { remove_idea = pop_010 add_idea = pop_035 }
}
if = {
		limit = { has_idea = pop_015 }
		swap_ideas = { remove_idea = pop_015 add_idea = pop_035 }
}
if = {
		limit = { has_idea = pop_020 }
		swap_ideas = { remove_idea = pop_020 add_idea = pop_035 }
}
if = {
		limit = { has_idea = pop_025 }
		swap_ideas = { remove_idea = pop_025 add_idea = pop_035 }
}
if = {
		limit = { has_idea = pop_030 }
		swap_ideas = { remove_idea = pop_030 add_idea = pop_035 }
}
if = {
		limit = { has_idea = pop_040 }
		swap_ideas = { remove_idea = pop_040 add_idea = pop_035 }
}
if = {
		limit = { has_idea = pop_045 }
		swap_ideas = { remove_idea = pop_045 add_idea = pop_035 }
}
if = {
		limit = { has_idea = pop_050 }
		swap_ideas = { remove_idea = pop_050 add_idea = pop_035 }
}
if = {
		limit = { has_idea = pop_055 }
		swap_ideas = { remove_idea = pop_055 add_idea = pop_035 }
}
if = {
		limit = { has_idea = pop_060 }
		swap_ideas = { remove_idea = pop_060 add_idea = pop_035 }
}
if = {
		limit = { has_idea = pop_065 }
		swap_ideas = { remove_idea = pop_065 add_idea = pop_035 }
}
if = {
		limit = { has_idea = pop_070 }
		swap_ideas = { remove_idea = pop_070 add_idea = pop_035 }
}
if = {
		limit = { has_idea = pop_075 }
		swap_ideas = { remove_idea = pop_075 add_idea = pop_035 }
}
if = {
		limit = { has_idea = pop_080 }
		swap_ideas = { remove_idea = pop_080 add_idea = pop_035 }
}
if = {
		limit = { has_idea = pop_085 }
		swap_ideas = { remove_idea = pop_085 add_idea = pop_035 }
}
if = {
		limit = { has_idea = pop_090 }
		swap_ideas = { remove_idea = pop_090 add_idea = pop_035 }
}
if = {
		limit = { has_idea = pop_095 }
		swap_ideas = { remove_idea = pop_095 add_idea = pop_035 }
}
if = {
		limit = { has_idea = pop_100 }
		swap_ideas = { remove_idea = pop_100 add_idea = pop_035 }
}
}
change_to_pop_040 = {
if = {
		limit = { has_idea = pop_000 }
		swap_ideas = { remove_idea = pop_000 add_idea = pop_040 }
}
if = {
		limit = { has_idea = pop_005 }
		swap_ideas = { remove_idea = pop_005 add_idea = pop_040 }
}
if = {
		limit = { has_idea = pop_010 }
		swap_ideas = { remove_idea = pop_010 add_idea = pop_040 }
}
if = {
		limit = { has_idea = pop_015 }
		swap_ideas = { remove_idea = pop_015 add_idea = pop_040 }
}
if = {
		limit = { has_idea = pop_020 }
		swap_ideas = { remove_idea = pop_020 add_idea = pop_040 }
}
if = {
		limit = { has_idea = pop_025 }
		swap_ideas = { remove_idea = pop_025 add_idea = pop_040 }
}
if = {
		limit = { has_idea = pop_030 }
		swap_ideas = { remove_idea = pop_030 add_idea = pop_040 }
}
if = {
		limit = { has_idea = pop_035 }
		swap_ideas = { remove_idea = pop_035 add_idea = pop_040 }
}
if = {
		limit = { has_idea = pop_045 }
		swap_ideas = { remove_idea = pop_045 add_idea = pop_040 }
}
if = {
		limit = { has_idea = pop_050 }
		swap_ideas = { remove_idea = pop_050 add_idea = pop_040 }
}
if = {
		limit = { has_idea = pop_055 }
		swap_ideas = { remove_idea = pop_055 add_idea = pop_040 }
}
if = {
		limit = { has_idea = pop_060 }
		swap_ideas = { remove_idea = pop_060 add_idea = pop_040 }
}
if = {
		limit = { has_idea = pop_065 }
		swap_ideas = { remove_idea = pop_065 add_idea = pop_040 }
}
if = {
		limit = { has_idea = pop_070 }
		swap_ideas = { remove_idea = pop_070 add_idea = pop_040 }
}
if = {
		limit = { has_idea = pop_075 }
		swap_ideas = { remove_idea = pop_075 add_idea = pop_040 }
}
if = {
		limit = { has_idea = pop_080 }
		swap_ideas = { remove_idea = pop_080 add_idea = pop_040 }
}
if = {
		limit = { has_idea = pop_085 }
		swap_ideas = { remove_idea = pop_085 add_idea = pop_040 }
}
if = {
		limit = { has_idea = pop_090 }
		swap_ideas = { remove_idea = pop_090 add_idea = pop_040 }
}
if = {
		limit = { has_idea = pop_095 }
		swap_ideas = { remove_idea = pop_095 add_idea = pop_040 }
}
if = {
		limit = { has_idea = pop_100 }
		swap_ideas = { remove_idea = pop_100 add_idea = pop_040 }
}
}
change_to_pop_045 = {
if = {
		limit = { has_idea = pop_000 }
		swap_ideas = { remove_idea = pop_000 add_idea = pop_045 }
}
if = {
		limit = { has_idea = pop_005 }
		swap_ideas = { remove_idea = pop_005 add_idea = pop_045 }
}
if = {
		limit = { has_idea = pop_010 }
		swap_ideas = { remove_idea = pop_010 add_idea = pop_045 }
}
if = {
		limit = { has_idea = pop_015 }
		swap_ideas = { remove_idea = pop_015 add_idea = pop_045 }
}
if = {
		limit = { has_idea = pop_020 }
		swap_ideas = { remove_idea = pop_020 add_idea = pop_045 }
}
if = {
		limit = { has_idea = pop_025 }
		swap_ideas = { remove_idea = pop_025 add_idea = pop_045 }
}
if = {
		limit = { has_idea = pop_030 }
		swap_ideas = { remove_idea = pop_030 add_idea = pop_045 }
}
if = {
		limit = { has_idea = pop_035 }
		swap_ideas = { remove_idea = pop_035 add_idea = pop_045 }
}
if = {
		limit = { has_idea = pop_040 }
		swap_ideas = { remove_idea = pop_040 add_idea = pop_045 }
}
if = {
		limit = { has_idea = pop_050 }
		swap_ideas = { remove_idea = pop_050 add_idea = pop_045 }
}
if = {
		limit = { has_idea = pop_055 }
		swap_ideas = { remove_idea = pop_055 add_idea = pop_045 }
}
if = {
		limit = { has_idea = pop_060 }
		swap_ideas = { remove_idea = pop_060 add_idea = pop_045 }
}
if = {
		limit = { has_idea = pop_065 }
		swap_ideas = { remove_idea = pop_065 add_idea = pop_045 }
}
if = {
		limit = { has_idea = pop_070 }
		swap_ideas = { remove_idea = pop_070 add_idea = pop_045 }
}
if = {
		limit = { has_idea = pop_075 }
		swap_ideas = { remove_idea = pop_075 add_idea = pop_045 }
}
if = {
		limit = { has_idea = pop_080 }
		swap_ideas = { remove_idea = pop_080 add_idea = pop_045 }
}
if = {
		limit = { has_idea = pop_085 }
		swap_ideas = { remove_idea = pop_085 add_idea = pop_045 }
}
if = {
		limit = { has_idea = pop_090 }
		swap_ideas = { remove_idea = pop_090 add_idea = pop_045 }
}
if = {
		limit = { has_idea = pop_095 }
		swap_ideas = { remove_idea = pop_095 add_idea = pop_045 }
}
if = {
		limit = { has_idea = pop_100 }
		swap_ideas = { remove_idea = pop_100 add_idea = pop_045 }
}
}
change_to_pop_050 = {
if = {
		limit = { has_idea = pop_000 }
		swap_ideas = { remove_idea = pop_000 add_idea = pop_050 }
}
if = {
		limit = { has_idea = pop_005 }
		swap_ideas = { remove_idea = pop_005 add_idea = pop_050 }
}
if = {
		limit = { has_idea = pop_010 }
		swap_ideas = { remove_idea = pop_010 add_idea = pop_050 }
}
if = {
		limit = { has_idea = pop_015 }
		swap_ideas = { remove_idea = pop_015 add_idea = pop_050 }
}
if = {
		limit = { has_idea = pop_020 }
		swap_ideas = { remove_idea = pop_020 add_idea = pop_050 }
}
if = {
		limit = { has_idea = pop_025 }
		swap_ideas = { remove_idea = pop_025 add_idea = pop_050 }
}
if = {
		limit = { has_idea = pop_030 }
		swap_ideas = { remove_idea = pop_030 add_idea = pop_050 }
}
if = {
		limit = { has_idea = pop_035 }
		swap_ideas = { remove_idea = pop_035 add_idea = pop_050 }
}
if = {
		limit = { has_idea = pop_040 }
		swap_ideas = { remove_idea = pop_040 add_idea = pop_050 }
}
if = {
		limit = { has_idea = pop_045 }
		swap_ideas = { remove_idea = pop_045 add_idea = pop_050 }
}
if = {
		limit = { has_idea = pop_055 }
		swap_ideas = { remove_idea = pop_055 add_idea = pop_050 }
}
if = {
		limit = { has_idea = pop_060 }
		swap_ideas = { remove_idea = pop_060 add_idea = pop_050 }
}
if = {
		limit = { has_idea = pop_065 }
		swap_ideas = { remove_idea = pop_065 add_idea = pop_050 }
}
if = {
		limit = { has_idea = pop_070 }
		swap_ideas = { remove_idea = pop_070 add_idea = pop_050 }
}
if = {
		limit = { has_idea = pop_075 }
		swap_ideas = { remove_idea = pop_075 add_idea = pop_050 }
}
if = {
		limit = { has_idea = pop_080 }
		swap_ideas = { remove_idea = pop_080 add_idea = pop_050 }
}
if = {
		limit = { has_idea = pop_085 }
		swap_ideas = { remove_idea = pop_085 add_idea = pop_050 }
}
if = {
		limit = { has_idea = pop_090 }
		swap_ideas = { remove_idea = pop_090 add_idea = pop_050 }
}
if = {
		limit = { has_idea = pop_095 }
		swap_ideas = { remove_idea = pop_095 add_idea = pop_050 }
}
if = {
		limit = { has_idea = pop_100 }
		swap_ideas = { remove_idea = pop_100 add_idea = pop_050 }
}
}
change_to_pop_055 = {
if = {
		limit = { has_idea = pop_000 }
		swap_ideas = { remove_idea = pop_000 add_idea = pop_055 }
}
if = {
		limit = { has_idea = pop_005 }
		swap_ideas = { remove_idea = pop_005 add_idea = pop_055 }
}
if = {
		limit = { has_idea = pop_010 }
		swap_ideas = { remove_idea = pop_010 add_idea = pop_055 }
}
if = {
		limit = { has_idea = pop_015 }
		swap_ideas = { remove_idea = pop_015 add_idea = pop_055 }
}
if = {
		limit = { has_idea = pop_020 }
		swap_ideas = { remove_idea = pop_020 add_idea = pop_055 }
}
if = {
		limit = { has_idea = pop_025 }
		swap_ideas = { remove_idea = pop_025 add_idea = pop_055 }
}
if = {
		limit = { has_idea = pop_030 }
		swap_ideas = { remove_idea = pop_030 add_idea = pop_055 }
}
if = {
		limit = { has_idea = pop_035 }
		swap_ideas = { remove_idea = pop_035 add_idea = pop_055 }
}
if = {
		limit = { has_idea = pop_040 }
		swap_ideas = { remove_idea = pop_040 add_idea = pop_055 }
}
if = {
		limit = { has_idea = pop_045 }
		swap_ideas = { remove_idea = pop_045 add_idea = pop_055 }
}
if = {
		limit = { has_idea = pop_050 }
		swap_ideas = { remove_idea = pop_050 add_idea = pop_055 }
}
if = {
		limit = { has_idea = pop_060 }
		swap_ideas = { remove_idea = pop_060 add_idea = pop_055 }
}
if = {
		limit = { has_idea = pop_065 }
		swap_ideas = { remove_idea = pop_065 add_idea = pop_055 }
}
if = {
		limit = { has_idea = pop_070 }
		swap_ideas = { remove_idea = pop_070 add_idea = pop_055 }
}
if = {
		limit = { has_idea = pop_075 }
		swap_ideas = { remove_idea = pop_075 add_idea = pop_055 }
}
if = {
		limit = { has_idea = pop_080 }
		swap_ideas = { remove_idea = pop_080 add_idea = pop_055 }
}
if = {
		limit = { has_idea = pop_085 }
		swap_ideas = { remove_idea = pop_085 add_idea = pop_055 }
}
if = {
		limit = { has_idea = pop_090 }
		swap_ideas = { remove_idea = pop_090 add_idea = pop_055 }
}
if = {
		limit = { has_idea = pop_095 }
		swap_ideas = { remove_idea = pop_095 add_idea = pop_055 }
}
if = {
		limit = { has_idea = pop_100 }
		swap_ideas = { remove_idea = pop_100 add_idea = pop_055 }
}
}
change_to_pop_060 = {
if = {
		limit = { has_idea = pop_000 }
		swap_ideas = { remove_idea = pop_000 add_idea = pop_060 }
}
if = {
		limit = { has_idea = pop_005 }
		swap_ideas = { remove_idea = pop_005 add_idea = pop_060 }
}
if = {
		limit = { has_idea = pop_010 }
		swap_ideas = { remove_idea = pop_010 add_idea = pop_060 }
}
if = {
		limit = { has_idea = pop_015 }
		swap_ideas = { remove_idea = pop_015 add_idea = pop_060 }
}
if = {
		limit = { has_idea = pop_020 }
		swap_ideas = { remove_idea = pop_020 add_idea = pop_060 }
}
if = {
		limit = { has_idea = pop_025 }
		swap_ideas = { remove_idea = pop_025 add_idea = pop_060 }
}
if = {
		limit = { has_idea = pop_030 }
		swap_ideas = { remove_idea = pop_030 add_idea = pop_060 }
}
if = {
		limit = { has_idea = pop_035 }
		swap_ideas = { remove_idea = pop_035 add_idea = pop_060 }
}
if = {
		limit = { has_idea = pop_040 }
		swap_ideas = { remove_idea = pop_040 add_idea = pop_060 }
}
if = {
		limit = { has_idea = pop_045 }
		swap_ideas = { remove_idea = pop_045 add_idea = pop_060 }
}
if = {
		limit = { has_idea = pop_050 }
		swap_ideas = { remove_idea = pop_050 add_idea = pop_060 }
}
if = {
		limit = { has_idea = pop_055 }
		swap_ideas = { remove_idea = pop_055 add_idea = pop_060 }
}
if = {
		limit = { has_idea = pop_065 }
		swap_ideas = { remove_idea = pop_065 add_idea = pop_060 }
}
if = {
		limit = { has_idea = pop_070 }
		swap_ideas = { remove_idea = pop_070 add_idea = pop_060 }
}
if = {
		limit = { has_idea = pop_075 }
		swap_ideas = { remove_idea = pop_075 add_idea = pop_060 }
}
if = {
		limit = { has_idea = pop_080 }
		swap_ideas = { remove_idea = pop_080 add_idea = pop_060 }
}
if = {
		limit = { has_idea = pop_085 }
		swap_ideas = { remove_idea = pop_085 add_idea = pop_060 }
}
if = {
		limit = { has_idea = pop_090 }
		swap_ideas = { remove_idea = pop_090 add_idea = pop_060 }
}
if = {
		limit = { has_idea = pop_095 }
		swap_ideas = { remove_idea = pop_095 add_idea = pop_060 }
}
if = {
		limit = { has_idea = pop_100 }
		swap_ideas = { remove_idea = pop_100 add_idea = pop_060 }
}
}
change_to_pop_065 = {
if = {
		limit = { has_idea = pop_000 }
		swap_ideas = { remove_idea = pop_000 add_idea = pop_065 }
}
if = {
		limit = { has_idea = pop_005 }
		swap_ideas = { remove_idea = pop_005 add_idea = pop_065 }
}
if = {
		limit = { has_idea = pop_010 }
		swap_ideas = { remove_idea = pop_010 add_idea = pop_065 }
}
if = {
		limit = { has_idea = pop_015 }
		swap_ideas = { remove_idea = pop_015 add_idea = pop_065 }
}
if = {
		limit = { has_idea = pop_020 }
		swap_ideas = { remove_idea = pop_020 add_idea = pop_065 }
}
if = {
		limit = { has_idea = pop_025 }
		swap_ideas = { remove_idea = pop_025 add_idea = pop_065 }
}
if = {
		limit = { has_idea = pop_030 }
		swap_ideas = { remove_idea = pop_030 add_idea = pop_065 }
}
if = {
		limit = { has_idea = pop_035 }
		swap_ideas = { remove_idea = pop_035 add_idea = pop_065 }
}
if = {
		limit = { has_idea = pop_040 }
		swap_ideas = { remove_idea = pop_040 add_idea = pop_065 }
}
if = {
		limit = { has_idea = pop_045 }
		swap_ideas = { remove_idea = pop_045 add_idea = pop_065 }
}
if = {
		limit = { has_idea = pop_050 }
		swap_ideas = { remove_idea = pop_050 add_idea = pop_065 }
}
if = {
		limit = { has_idea = pop_055 }
		swap_ideas = { remove_idea = pop_055 add_idea = pop_065 }
}
if = {
		limit = { has_idea = pop_060 }
		swap_ideas = { remove_idea = pop_060 add_idea = pop_065 }
}
if = {
		limit = { has_idea = pop_070 }
		swap_ideas = { remove_idea = pop_070 add_idea = pop_065 }
}
if = {
		limit = { has_idea = pop_075 }
		swap_ideas = { remove_idea = pop_075 add_idea = pop_065 }
}
if = {
		limit = { has_idea = pop_080 }
		swap_ideas = { remove_idea = pop_080 add_idea = pop_065 }
}
if = {
		limit = { has_idea = pop_085 }
		swap_ideas = { remove_idea = pop_085 add_idea = pop_065 }
}
if = {
		limit = { has_idea = pop_090 }
		swap_ideas = { remove_idea = pop_090 add_idea = pop_065 }
}
if = {
		limit = { has_idea = pop_095 }
		swap_ideas = { remove_idea = pop_095 add_idea = pop_065 }
}
if = {
		limit = { has_idea = pop_100 }
		swap_ideas = { remove_idea = pop_100 add_idea = pop_065 }
}
}
change_to_pop_070 = {
if = {
		limit = { has_idea = pop_000 }
		swap_ideas = { remove_idea = pop_000 add_idea = pop_070 }
}
if = {
		limit = { has_idea = pop_005 }
		swap_ideas = { remove_idea = pop_005 add_idea = pop_070 }
}
if = {
		limit = { has_idea = pop_010 }
		swap_ideas = { remove_idea = pop_010 add_idea = pop_070 }
}
if = {
		limit = { has_idea = pop_015 }
		swap_ideas = { remove_idea = pop_015 add_idea = pop_070 }
}
if = {
		limit = { has_idea = pop_020 }
		swap_ideas = { remove_idea = pop_020 add_idea = pop_070 }
}
if = {
		limit = { has_idea = pop_025 }
		swap_ideas = { remove_idea = pop_025 add_idea = pop_070 }
}
if = {
		limit = { has_idea = pop_030 }
		swap_ideas = { remove_idea = pop_030 add_idea = pop_070 }
}
if = {
		limit = { has_idea = pop_035 }
		swap_ideas = { remove_idea = pop_035 add_idea = pop_070 }
}
if = {
		limit = { has_idea = pop_040 }
		swap_ideas = { remove_idea = pop_040 add_idea = pop_070 }
}
if = {
		limit = { has_idea = pop_045 }
		swap_ideas = { remove_idea = pop_045 add_idea = pop_070 }
}
if = {
		limit = { has_idea = pop_050 }
		swap_ideas = { remove_idea = pop_050 add_idea = pop_070 }
}
if = {
		limit = { has_idea = pop_055 }
		swap_ideas = { remove_idea = pop_055 add_idea = pop_070 }
}
if = {
		limit = { has_idea = pop_060 }
		swap_ideas = { remove_idea = pop_060 add_idea = pop_070 }
}
if = {
		limit = { has_idea = pop_065 }
		swap_ideas = { remove_idea = pop_065 add_idea = pop_070 }
}
if = {
		limit = { has_idea = pop_075 }
		swap_ideas = { remove_idea = pop_075 add_idea = pop_070 }
}
if = {
		limit = { has_idea = pop_080 }
		swap_ideas = { remove_idea = pop_080 add_idea = pop_070 }
}
if = {
		limit = { has_idea = pop_085 }
		swap_ideas = { remove_idea = pop_085 add_idea = pop_070 }
}
if = {
		limit = { has_idea = pop_090 }
		swap_ideas = { remove_idea = pop_090 add_idea = pop_070 }
}
if = {
		limit = { has_idea = pop_095 }
		swap_ideas = { remove_idea = pop_095 add_idea = pop_070 }
}
if = {
		limit = { has_idea = pop_100 }
		swap_ideas = { remove_idea = pop_100 add_idea = pop_070 }
}
}
change_to_pop_075 = {
if = {
		limit = { has_idea = pop_000 }
		swap_ideas = { remove_idea = pop_000 add_idea = pop_075 }
}
if = {
		limit = { has_idea = pop_005 }
		swap_ideas = { remove_idea = pop_005 add_idea = pop_075 }
}
if = {
		limit = { has_idea = pop_010 }
		swap_ideas = { remove_idea = pop_010 add_idea = pop_075 }
}
if = {
		limit = { has_idea = pop_015 }
		swap_ideas = { remove_idea = pop_015 add_idea = pop_075 }
}
if = {
		limit = { has_idea = pop_020 }
		swap_ideas = { remove_idea = pop_020 add_idea = pop_075 }
}
if = {
		limit = { has_idea = pop_025 }
		swap_ideas = { remove_idea = pop_025 add_idea = pop_075 }
}
if = {
		limit = { has_idea = pop_030 }
		swap_ideas = { remove_idea = pop_030 add_idea = pop_075 }
}
if = {
		limit = { has_idea = pop_035 }
		swap_ideas = { remove_idea = pop_035 add_idea = pop_075 }
}
if = {
		limit = { has_idea = pop_040 }
		swap_ideas = { remove_idea = pop_040 add_idea = pop_075 }
}
if = {
		limit = { has_idea = pop_045 }
		swap_ideas = { remove_idea = pop_045 add_idea = pop_075 }
}
if = {
		limit = { has_idea = pop_050 }
		swap_ideas = { remove_idea = pop_050 add_idea = pop_075 }
}
if = {
		limit = { has_idea = pop_055 }
		swap_ideas = { remove_idea = pop_055 add_idea = pop_075 }
}
if = {
		limit = { has_idea = pop_060 }
		swap_ideas = { remove_idea = pop_060 add_idea = pop_075 }
}
if = {
		limit = { has_idea = pop_065 }
		swap_ideas = { remove_idea = pop_065 add_idea = pop_075 }
}
if = {
		limit = { has_idea = pop_070 }
		swap_ideas = { remove_idea = pop_070 add_idea = pop_075 }
}
if = {
		limit = { has_idea = pop_080 }
		swap_ideas = { remove_idea = pop_080 add_idea = pop_075 }
}
if = {
		limit = { has_idea = pop_085 }
		swap_ideas = { remove_idea = pop_085 add_idea = pop_075 }
}
if = {
		limit = { has_idea = pop_090 }
		swap_ideas = { remove_idea = pop_090 add_idea = pop_075 }
}
if = {
		limit = { has_idea = pop_095 }
		swap_ideas = { remove_idea = pop_095 add_idea = pop_075 }
}
if = {
		limit = { has_idea = pop_100 }
		swap_ideas = { remove_idea = pop_100 add_idea = pop_075 }
}
}
change_to_pop_080 = {
if = {
		limit = { has_idea = pop_000 }
		swap_ideas = { remove_idea = pop_000 add_idea = pop_080 }
}
if = {
		limit = { has_idea = pop_005 }
		swap_ideas = { remove_idea = pop_005 add_idea = pop_080 }
}
if = {
		limit = { has_idea = pop_010 }
		swap_ideas = { remove_idea = pop_010 add_idea = pop_080 }
}
if = {
		limit = { has_idea = pop_015 }
		swap_ideas = { remove_idea = pop_015 add_idea = pop_080 }
}
if = {
		limit = { has_idea = pop_020 }
		swap_ideas = { remove_idea = pop_020 add_idea = pop_080 }
}
if = {
		limit = { has_idea = pop_025 }
		swap_ideas = { remove_idea = pop_025 add_idea = pop_080 }
}
if = {
		limit = { has_idea = pop_030 }
		swap_ideas = { remove_idea = pop_030 add_idea = pop_080 }
}
if = {
		limit = { has_idea = pop_035 }
		swap_ideas = { remove_idea = pop_035 add_idea = pop_080 }
}
if = {
		limit = { has_idea = pop_040 }
		swap_ideas = { remove_idea = pop_040 add_idea = pop_080 }
}
if = {
		limit = { has_idea = pop_045 }
		swap_ideas = { remove_idea = pop_045 add_idea = pop_080 }
}
if = {
		limit = { has_idea = pop_050 }
		swap_ideas = { remove_idea = pop_050 add_idea = pop_080 }
}
if = {
		limit = { has_idea = pop_055 }
		swap_ideas = { remove_idea = pop_055 add_idea = pop_080 }
}
if = {
		limit = { has_idea = pop_060 }
		swap_ideas = { remove_idea = pop_060 add_idea = pop_080 }
}
if = {
		limit = { has_idea = pop_065 }
		swap_ideas = { remove_idea = pop_065 add_idea = pop_080 }
}
if = {
		limit = { has_idea = pop_070 }
		swap_ideas = { remove_idea = pop_070 add_idea = pop_080 }
}
if = {
		limit = { has_idea = pop_075 }
		swap_ideas = { remove_idea = pop_075 add_idea = pop_080 }
}
if = {
		limit = { has_idea = pop_085 }
		swap_ideas = { remove_idea = pop_085 add_idea = pop_080 }
}
if = {
		limit = { has_idea = pop_090 }
		swap_ideas = { remove_idea = pop_090 add_idea = pop_080 }
}
if = {
		limit = { has_idea = pop_095 }
		swap_ideas = { remove_idea = pop_095 add_idea = pop_080 }
}
if = {
		limit = { has_idea = pop_100 }
		swap_ideas = { remove_idea = pop_100 add_idea = pop_080 }
}
}
change_to_pop_085 = {
if = {
		limit = { has_idea = pop_000 }
		swap_ideas = { remove_idea = pop_000 add_idea = pop_085 }
}
if = {
		limit = { has_idea = pop_005 }
		swap_ideas = { remove_idea = pop_005 add_idea = pop_085 }
}
if = {
		limit = { has_idea = pop_010 }
		swap_ideas = { remove_idea = pop_010 add_idea = pop_085 }
}
if = {
		limit = { has_idea = pop_015 }
		swap_ideas = { remove_idea = pop_015 add_idea = pop_085 }
}
if = {
		limit = { has_idea = pop_020 }
		swap_ideas = { remove_idea = pop_020 add_idea = pop_085 }
}
if = {
		limit = { has_idea = pop_025 }
		swap_ideas = { remove_idea = pop_025 add_idea = pop_085 }
}
if = {
		limit = { has_idea = pop_030 }
		swap_ideas = { remove_idea = pop_030 add_idea = pop_085 }
}
if = {
		limit = { has_idea = pop_035 }
		swap_ideas = { remove_idea = pop_035 add_idea = pop_085 }
}
if = {
		limit = { has_idea = pop_040 }
		swap_ideas = { remove_idea = pop_040 add_idea = pop_085 }
}
if = {
		limit = { has_idea = pop_045 }
		swap_ideas = { remove_idea = pop_045 add_idea = pop_085 }
}
if = {
		limit = { has_idea = pop_050 }
		swap_ideas = { remove_idea = pop_050 add_idea = pop_085 }
}
if = {
		limit = { has_idea = pop_055 }
		swap_ideas = { remove_idea = pop_055 add_idea = pop_085 }
}
if = {
		limit = { has_idea = pop_060 }
		swap_ideas = { remove_idea = pop_060 add_idea = pop_085 }
}
if = {
		limit = { has_idea = pop_065 }
		swap_ideas = { remove_idea = pop_065 add_idea = pop_085 }
}
if = {
		limit = { has_idea = pop_070 }
		swap_ideas = { remove_idea = pop_070 add_idea = pop_085 }
}
if = {
		limit = { has_idea = pop_075 }
		swap_ideas = { remove_idea = pop_075 add_idea = pop_085 }
}
if = {
		limit = { has_idea = pop_080 }
		swap_ideas = { remove_idea = pop_080 add_idea = pop_085 }
}
if = {
		limit = { has_idea = pop_090 }
		swap_ideas = { remove_idea = pop_090 add_idea = pop_085 }
}
if = {
		limit = { has_idea = pop_095 }
		swap_ideas = { remove_idea = pop_095 add_idea = pop_085 }
}
if = {
		limit = { has_idea = pop_100 }
		swap_ideas = { remove_idea = pop_100 add_idea = pop_085 }
}
}
change_to_pop_090 = {
if = {
		limit = { has_idea = pop_000 }
		swap_ideas = { remove_idea = pop_000 add_idea = pop_090 }
}
if = {
		limit = { has_idea = pop_005 }
		swap_ideas = { remove_idea = pop_005 add_idea = pop_090 }
}
if = {
		limit = { has_idea = pop_010 }
		swap_ideas = { remove_idea = pop_010 add_idea = pop_090 }
}
if = {
		limit = { has_idea = pop_015 }
		swap_ideas = { remove_idea = pop_015 add_idea = pop_090 }
}
if = {
		limit = { has_idea = pop_020 }
		swap_ideas = { remove_idea = pop_020 add_idea = pop_090 }
}
if = {
		limit = { has_idea = pop_025 }
		swap_ideas = { remove_idea = pop_025 add_idea = pop_090 }
}
if = {
		limit = { has_idea = pop_030 }
		swap_ideas = { remove_idea = pop_030 add_idea = pop_090 }
}
if = {
		limit = { has_idea = pop_035 }
		swap_ideas = { remove_idea = pop_035 add_idea = pop_090 }
}
if = {
		limit = { has_idea = pop_040 }
		swap_ideas = { remove_idea = pop_040 add_idea = pop_090 }
}
if = {
		limit = { has_idea = pop_045 }
		swap_ideas = { remove_idea = pop_045 add_idea = pop_090 }
}
if = {
		limit = { has_idea = pop_050 }
		swap_ideas = { remove_idea = pop_050 add_idea = pop_090 }
}
if = {
		limit = { has_idea = pop_055 }
		swap_ideas = { remove_idea = pop_055 add_idea = pop_090 }
}
if = {
		limit = { has_idea = pop_060 }
		swap_ideas = { remove_idea = pop_060 add_idea = pop_090 }
}
if = {
		limit = { has_idea = pop_065 }
		swap_ideas = { remove_idea = pop_065 add_idea = pop_090 }
}
if = {
		limit = { has_idea = pop_070 }
		swap_ideas = { remove_idea = pop_070 add_idea = pop_090 }
}
if = {
		limit = { has_idea = pop_075 }
		swap_ideas = { remove_idea = pop_075 add_idea = pop_090 }
}
if = {
		limit = { has_idea = pop_080 }
		swap_ideas = { remove_idea = pop_080 add_idea = pop_090 }
}
if = {
		limit = { has_idea = pop_085 }
		swap_ideas = { remove_idea = pop_085 add_idea = pop_090 }
}
if = {
		limit = { has_idea = pop_095 }
		swap_ideas = { remove_idea = pop_095 add_idea = pop_090 }
}
if = {
		limit = { has_idea = pop_100 }
		swap_ideas = { remove_idea = pop_100 add_idea = pop_090 }
}
}
change_to_pop_095 = {
if = {
		limit = { has_idea = pop_000 }
		swap_ideas = { remove_idea = pop_000 add_idea = pop_095 }
}
if = {
		limit = { has_idea = pop_005 }
		swap_ideas = { remove_idea = pop_005 add_idea = pop_095 }
}
if = {
		limit = { has_idea = pop_010 }
		swap_ideas = { remove_idea = pop_010 add_idea = pop_095 }
}
if = {
		limit = { has_idea = pop_015 }
		swap_ideas = { remove_idea = pop_015 add_idea = pop_095 }
}
if = {
		limit = { has_idea = pop_020 }
		swap_ideas = { remove_idea = pop_020 add_idea = pop_095 }
}
if = {
		limit = { has_idea = pop_025 }
		swap_ideas = { remove_idea = pop_025 add_idea = pop_095 }
}
if = {
		limit = { has_idea = pop_030 }
		swap_ideas = { remove_idea = pop_030 add_idea = pop_095 }
}
if = {
		limit = { has_idea = pop_035 }
		swap_ideas = { remove_idea = pop_035 add_idea = pop_095 }
}
if = {
		limit = { has_idea = pop_040 }
		swap_ideas = { remove_idea = pop_040 add_idea = pop_095 }
}
if = {
		limit = { has_idea = pop_045 }
		swap_ideas = { remove_idea = pop_045 add_idea = pop_095 }
}
if = {
		limit = { has_idea = pop_050 }
		swap_ideas = { remove_idea = pop_050 add_idea = pop_095 }
}
if = {
		limit = { has_idea = pop_055 }
		swap_ideas = { remove_idea = pop_055 add_idea = pop_095 }
}
if = {
		limit = { has_idea = pop_060 }
		swap_ideas = { remove_idea = pop_060 add_idea = pop_095 }
}
if = {
		limit = { has_idea = pop_065 }
		swap_ideas = { remove_idea = pop_065 add_idea = pop_095 }
}
if = {
		limit = { has_idea = pop_070 }
		swap_ideas = { remove_idea = pop_070 add_idea = pop_095 }
}
if = {
		limit = { has_idea = pop_075 }
		swap_ideas = { remove_idea = pop_075 add_idea = pop_095 }
}
if = {
		limit = { has_idea = pop_080 }
		swap_ideas = { remove_idea = pop_080 add_idea = pop_095 }
}
if = {
		limit = { has_idea = pop_085 }
		swap_ideas = { remove_idea = pop_085 add_idea = pop_095 }
}
if = {
		limit = { has_idea = pop_090 }
		swap_ideas = { remove_idea = pop_090 add_idea = pop_095 }
}
if = {
		limit = { has_idea = pop_100 }
		swap_ideas = { remove_idea = pop_100 add_idea = pop_095 }
}
}
change_to_pop_100 = {
if = {
		limit = { has_idea = pop_000 }
		swap_ideas = { remove_idea = pop_000 add_idea = pop_100 }
}
if = {
		limit = { has_idea = pop_005 }
		swap_ideas = { remove_idea = pop_005 add_idea = pop_100 }
}
if = {
		limit = { has_idea = pop_010 }
		swap_ideas = { remove_idea = pop_010 add_idea = pop_100 }
}
if = {
		limit = { has_idea = pop_015 }
		swap_ideas = { remove_idea = pop_015 add_idea = pop_100 }
}
if = {
		limit = { has_idea = pop_020 }
		swap_ideas = { remove_idea = pop_020 add_idea = pop_100 }
}
if = {
		limit = { has_idea = pop_025 }
		swap_ideas = { remove_idea = pop_025 add_idea = pop_100 }
}
if = {
		limit = { has_idea = pop_030 }
		swap_ideas = { remove_idea = pop_030 add_idea = pop_100 }
}
if = {
		limit = { has_idea = pop_035 }
		swap_ideas = { remove_idea = pop_035 add_idea = pop_100 }
}
if = {
		limit = { has_idea = pop_040 }
		swap_ideas = { remove_idea = pop_040 add_idea = pop_100 }
}
if = {
		limit = { has_idea = pop_045 }
		swap_ideas = { remove_idea = pop_045 add_idea = pop_100 }
}
if = {
		limit = { has_idea = pop_050 }
		swap_ideas = { remove_idea = pop_050 add_idea = pop_100 }
}
if = {
		limit = { has_idea = pop_055 }
		swap_ideas = { remove_idea = pop_055 add_idea = pop_100 }
}
if = {
		limit = { has_idea = pop_060 }
		swap_ideas = { remove_idea = pop_060 add_idea = pop_100 }
}
if = {
		limit = { has_idea = pop_065 }
		swap_ideas = { remove_idea = pop_065 add_idea = pop_100 }
}
if = {
		limit = { has_idea = pop_070 }
		swap_ideas = { remove_idea = pop_070 add_idea = pop_100 }
}
if = {
		limit = { has_idea = pop_075 }
		swap_ideas = { remove_idea = pop_075 add_idea = pop_100 }
}
if = {
		limit = { has_idea = pop_080 }
		swap_ideas = { remove_idea = pop_080 add_idea = pop_100 }
}
if = {
		limit = { has_idea = pop_085 }
		swap_ideas = { remove_idea = pop_085 add_idea = pop_100 }
}
if = {
		limit = { has_idea = pop_090 }
		swap_ideas = { remove_idea = pop_090 add_idea = pop_100 }
}
if = {
		limit = { has_idea = pop_095 }
		swap_ideas = { remove_idea = pop_095 add_idea = pop_100 }
}
}








