ideas = {
	country = {
		#Industrial/PSDB/Internal Factions
		BRA_idea_growth_through_freedom = {
			on_add = { log = "[GetDateText]: [Root.GetName]: add idea BRA_idea_growth_through_freedom" }
			
			
			
			picture = consumer_goods
			
			modifier = {
				political_power_factor = 0.15
				production_speed_buildings_factor = 0.10
			}
			
		}
		
		BRA_idea_foreign_research_and_development = {
			on_add = { log = "[GetDateText]: [Root.GetName]: add idea BRA_idea_foreign_research_and_development" }
		
			
			
			picture = foreign_capital
			
			modifier = {
				research_speed_factor = 0.15
			}
		}
		
		BRA_idea_nossa_economia = {
			on_add = { log = "[GetDateText]: [Root.GetName]: add idea BRA_idea_nossa_economia" }
		
			
			
			picture = central_management
			
			modifier = {
				production_factory_max_efficiency_factor = 0.10
				conversion_cost_civ_to_mil_factor = -0.25
				industry_repair_factor = 0.10
			}
		}
		
		BRA_idea_imf_debts = {
			on_add = { log = "[GetDateText]: [Root.GetName]: add idea BRA_idea_imf_debts" }
		
			
			
			picture = FRA_matignon_agreements
			
			modifier = {
				consumer_goods_factor = 0.05
			}
		}
		
		BRA_idea_amazonian_development_project = {
			on_add = { log = "[GetDateText]: [Root.GetName]: add idea BRA_idea_amazonian_development_project" }
		
			
			
			picture = idea_construction
			
			modifier = {
				production_factory_max_efficiency_factor = -0.01
				production_speed_buildings_factor = 0.10
			}
		}
		
		BRA_idea_political_buildup = {
			on_add = { log = "[GetDateText]: [Root.GetName]: add idea BRA_idea_political_buildup" }
			
			
			
			picture = political_power_bonus
			
			modifier = {
				political_power_factor = 0.05
			}
		}
		
		BRA_idea_brazilian_exports = {
			on_add = { log = "[GetDateText]: [Root.GetName]: add idea BRA_idea_brazilian_exports" }
			
			
			
			picture = trade
			
			modifier = {
				trade_opinion_factor = 0.15
				local_resources_factor = 0.075
			}
		}
		
		BRA_idea_pro_unions = {
			on_add = { log = "[GetDateText]: [Root.GetName]: add idea BRA_idea_pro_unions" }
			
			
			
			picture = factory_strikes
			
			modifier = {
				global_building_slots_factor = 0.10
				production_factory_max_efficiency_factor = 0.10
			}
		}
		
		BRA_idea_pro_farmers = {
			on_add = { log = "[GetDateText]: [Root.GetName]: add idea BRA_idea_pro_farmers" }
			
			
			
			picture = agriculture
			
			modifier = {
				MONTHLY_POPULATION = 0.15
				local_resources_factor = 0.10
			}
		}
		
		BRA_idea_crippled_currency = {
			on_add = { log = "[GetDateText]: [Root.GetName]: add idea BRA_idea_crippled_currency" }
			
			
			
			picture = great_inflation3
			
			modifier = {
				industry_repair_factor = -0.25
				production_factory_efficiency_gain_factor = -0.10
				political_power_cost = 0.25
				global_building_slots_factor = 0.05
				stability_factor = 0.02
			}
		}
		
		BRA_idea_angry_natives = {
			on_add = { log = "[GetDateText]: [Root.GetName]: add idea BRA_idea_angry_natives" }
			
			allowed_civil_war = {
				has_government = communism
			}
			
			
			
			picture = segregation2 
			
			modifier = {
				stability_factor = -0.05
				global_building_slots_factor = 0.10
			}
		}
		
		BRA_idea_brazilian_knack = {
			on_add = { log = "[GetDateText]: [Root.GetName]: add idea BRA_idea_brazilian_knack" }
		
			picture = brazilian_knack
			
			allowed = {
				original_tag = BRA
				has_government = communism
			}

			allowed_civil_war = {
				always = yes
			}

			
			
			modifier = {
				industrial_capacity_factory = 0.05
				political_power_cost = 0.5
				stability_factor = -0.05
			}
		}
		
		BRA_idea_brazilian_emerging_influence = {
			on_add = { log = "[GetDateText]: [Root.GetName]: add idea BRA_idea_brazilian_emerging_influence" }

			allowed_civil_war = {
				has_government = communism
			}

			
			
			picture = brazilian_influence
			
			modifier = {
				communism_drift = 0.1
				communism_acceptance = 85
			}
		}
		
		BRA_idea_new_wave_ideas = {
			on_add = { log = "[GetDateText]: [Root.GetName]: add idea BRA_idea_new_wave_ideas" }
			
			allowed_civil_war = {
				has_government = communism
			}
			
			
			
			picture = neutrality
			
			modifier = {
				political_power_cost = 0.25
				war_support_factor = 0.10
				industrial_capacity_factory = 0.10
			}
		}
		
#ReformistVSRadicalist
		
		BRA_idea_neo_comunista = {
			on_add = { log = "[GetDateText]: [Root.GetName]: add idea BRA_idea_neo_comunista" }
		
			
			
			picture = neo_comunista
			
			modifier = {
				war_support_factor = 0.15
				conscription_factor = 0.15
				industrial_capacity_factory = -0.15
				stability_factor = -0.10
			}
		}
		
		BRA_idea_radical_leftist = {
			on_add = { log = "[GetDateText]: [Root.GetName]: add idea BRA_idea_radical_leftist" }
			
			
			
			picture = radical_leftist
			
			modifier = {
				war_support_factor = 0.10
				conscription_factor = 0.10
				industrial_capacity_factory = -0.10
				stability_factor = -0.10
			}
		}
		
		BRA_idea_slightly_radical = {
			on_add = { log = "[GetDateText]: [Root.GetName]: add idea BRA_idea_slightly_radical" }
		
			
			
			picture = slightly_radical
			
			modifier = {
				war_support_factor = 0.05
				conscription_factor = 0.05
				industrial_capacity_factory = -0.05
				stability_factor = -0.05
			}
		}
		
		BRA_idea_well_balanced = {
			on_add = { log = "[GetDateText]: [Root.GetName]: add idea BRA_idea_well_balanced" }
			
			
			
			picture = well_balanced
			
			modifier = {
				stability_factor = 0.05
				conscription_factor = 0.05
			}
		}
		
		BRA_idea_slightly_reformist = {
			on_add = { log = "[GetDateText]: [Root.GetName]: add idea BRA_idea_slightly_reformist" }
			
			
			
			picture = slightly_reformist
			
			modifier = {
				stability_factor = 0.075
				industrial_capacity_factory = 0.05
			}
		}
		
		BRA_idea_modern_reformist = {
			on_add = { log = "[GetDateText]: [Root.GetName]: add idea BRA_idea_modern_reformist" }
			
			
			
			picture = modern_reformist
			
			modifier = {
				stability_factor = 0.10
				industrial_capacity_factory = 0.10
				conscription_factor = -0.05
				war_support_factor = -0.05
			}
		}
		
		BRA_idea_party_of_progress = {
			on_add = { log = "[GetDateText]: [Root.GetName]: add idea BRA_idea_party_of_progress" }
		
			
			
			picture = party_of_progress
			
			modifier = {
				stability_factor = 0.15
				industrial_capacity_factory = 0.15
				conscription_factor = -0.10
				war_support_factor = -0.10
			}
		}
		
#foreignpolicy-isolationism
		
		BRA_idea_restricted_travelers = {
			on_add = { log = "[GetDateText]: [Root.GetName]: add idea BRA_idea_restricted_travelers" }
			
			
			
			picture = fascism5 
			
			modifier = {
				MONTHLY_POPULATION = -0.05
				political_power_factor = -0.05
				stability_factor = 0.05
			}
		}
		
		BRA_idea_extensive_border_control = {
			on_add = { log = "[GetDateText]: [Root.GetName]: add idea BRA_idea_extensive_border_control" }
			
			
			
			picture = fascism5
			
			modifier = {
				MONTHLY_POPULATION = -0.10
				political_power_factor = -0.10
				stability_factor = 0.10
			}
		}

#foreignpolicy-country of brotherly love
		
		BRA_idea_diplomatic_powerhouse = {
			on_add = { log = "[GetDateText]: [Root.GetName]: add idea BRA_idea_diplomatic_powerhouse" }
			
			
			
			picture = flexible_foreign_policy2 
			
			modifier = {
				trade_opinion_factor = 0.125
				justify_war_goal_time = 0.125
				send_volunteer_size = 2
			}
		}
		
		BRA_idea_the_international_mediator = {
			on_add = { log = "[GetDateText]: [Root.GetName]: add idea BRA_idea_the_international_mediator" }
			
			
			
			picture = flexible_foreign_policy2 
			
			modifier = {
				trade_opinion_factor = 0.25
				justify_war_goal_time = 0.25
				send_volunteer_size = 5
			}
		}
		
		BRA_idea_a_global_power = {
			on_add = { log = "[GetDateText]: [Root.GetName]: add idea BRA_idea_a_global_power" }
			
			
			
			picture = international_treaty 
			
			modifier = {
				drift_defence_factor = 0.50
				stability_weekly = 0.001
				max_planning = 0.25
				encryption_factor = 0.05
			}
		}
		
		
#War on Cartels
		
		BRA_idea_cartels_stage_one = {
			on_add = { log = "[GetDateText]: [Root.GetName]: add idea BRA_idea_cartels_stage_one" }
			
			
			
			picture = cartels
			
			modifier = {
				political_power_factor = -0.20		
				corruption_cost_factor = 0.65
				industry_free_repair_factor = -0.25
				stability_factor = -0.15
				#conscription_factor = -0.15
				MONTHLY_POPULATION = -0.075
				army_morale_factor = -0.075
				army_org_factor = -0.075
			}
		}
		
		BRA_idea_cartels_stage_two = {
			on_add = { log = "[GetDateText]: [Root.GetName]: add idea BRA_idea_cartels_stage_two" }
			
			
			
			picture = cartels
			
			modifier = {
				political_power_factor = -0.10		
				corruption_cost_factor = 0.45
				industry_free_repair_factor = -0.0125
				stability_factor = -0.075
				#conscription_factor = -0.10
				MONTHLY_POPULATION = -0.05
				army_morale_factor = -0.05
				army_org_factor = -0.05
			}
		}
		
		BRA_idea_cartels_stage_three = {
			on_add = { log = "[GetDateText]: [Root.GetName]: add idea BRA_idea_cartels_stage_three" }
			
			
			
			picture = cartels
			
			modifier = {
				political_power_factor = -0.10		
				corruption_cost_factor = 0.45
				industry_free_repair_factor = -0.0125
				stability_factor = -0.075
				#conscription_factor = -0.10
				MONTHLY_POPULATION = -0.05
				army_morale_factor = -0.05
				army_org_factor = -0.05
			}
		}
		
		BRA_idea_cartels_stage_four = {
			on_add = { log = "[GetDateText]: [Root.GetName]: add idea BRA_idea_cartels_stage_four" }
			
			
			
			picture = cartels
			
			modifier = {
				political_power_factor = -0.05		
				corruption_cost_factor = 0.15
				stability_factor = -0.025
				#conscription_factor = -0.05
				MONTHLY_POPULATION = -0.025
				army_morale_factor = -0.025
				army_org_factor = -0.025
			}
		}
		
		BRA_idea_cartels_troubled_youth = {
			on_add = { log = "[GetDateText]: [Root.GetName]: add idea BRA_idea_cartels_troubled_youth" }
			
			
			
			picture = child_soliders
			
			modifier = {
				political_power_factor = -0.10		
				corruption_cost_factor = 0.15
				stability_factor = -0.10
				#conscription_factor = 0.10
			}
		}
#military - Army
		BRA_idea_modern_artillery = {
			on_add = { log = "[GetDateText]: [Root.GetName]: add idea BRA_idea_modern_artillery" }
			
			
			
			picture = artillery_regiments
			
			equipment_bonus = { 
				artillery_equipment = {
					build_cost_ic = -0.10 instant = yes
				}
			}
		}
		
		BRA_idea_imbel = {
			on_add = { log = "[GetDateText]: [Root.GetName]: add idea BRA_idea_imbel" }
		
			
			
			picture = volunteer_defenders2
			
			equipment_bonus = { 
				Inf_equipment = {
					build_cost_ic = -0.10 instant = yes
				}
			}
		}
		
		BRA_idea_homemade_rifles = {
			on_add = { log = "[GetDateText]: [Root.GetName]: add idea BRA_idea_homemade_rifles" }
		
			
			
			picture = volunteer_defenders3 
			
			modifier = {
				local_resources_factor = 0.1
				industrial_capacity_factory = 0.15
			}
		}
		
		BRA_idea_strength_on_land = {
			on_add = { log = "[GetDateText]: [Root.GetName]: add idea BRA_idea_strength_on_land" }
		
			
			
			picture = reserve_divisions
			
			modifier = {
				attrition = -0.10
				army_speed_factor = 0.10
				planning_speed = 0.10
			}
		}
		
		BRA_idea_modern_armor = {
			on_add = { log = "[GetDateText]: [Root.GetName]: add idea BRA_idea_modern_armor" }
			
			
			
			picture = national_mobilization
			
			modifier = {
				army_armor_attack_factor = 0.1
				army_armor_defence_factor = 0.1
			}
		}
		
		BRA_idea_braco_forte_mao_amiga = {
			on_add = { log = "[GetDateText]: [Root.GetName]: add idea BRA_idea_braco_forte_mao_amiga" }
			
			
			
			picture = fortification3
			
			modifier = {
				conscription = 0.005
				army_org = 0.1
				offence = 0.1
				defence = 0.1
				experience_gain_army = 0.05
			}
		}
		
#military - Navy
		BRA_idea_underwater_flotilla = {
			on_add = { log = "[GetDateText]: [Root.GetName]: add idea BRA_idea_underwater_flotilla" }
			
			
			picture = coastal_defense_ships
			
			equipment_bonus = { 
				attack_submarine = {
					build_cost_ic = -0.10 instant = yes
				}
				diesel_attack_submarine = {
					build_cost_ic = -0.10 instant = yes
				}
				missile_submarine = {
					build_cost_ic = -0.10 instant = yes
				}
			}
		}
		
		BRA_idea_reform_the_navy = {
			on_add = { log = "[GetDateText]: [Root.GetName]: add idea BRA_idea_reform_the_navy" }
			
			
			picture = coastal_navy
			
			modifier = {
				experience_gain_navy = 0.1
				navy_screen_attack_factor = 0.1
				navy_submarine_attack_factor = 0.1
				navy_capital_ship_attack_factor = 0.1
			}
		}
		
		BRA_idea_french_naval_studies = {
			on_add = { log = "[GetDateText]: [Root.GetName]: add idea BRA_idea_french_naval_studies" }
			
			
			
			picture = escort_effort
			
			modifier = {
				navy_max_range_factor = 0.10
				research_speed_factor = 0.05
			}
		}
		
		BRA_idea_protegendo_nossas_riquezas = {
			on_add = { log = "[GetDateText]: [Root.GetName]: add idea BRA_idea_protegendo_nossas_riquezas" }
			
			
			
			picture = navy_bonus
			
			modifier = {
				conscription = 0.005
				ships_at_battle_start = 0.25
				navy_anti_air_attack_factor = 0.25
				naval_speed_factor = 0.10
			}
		}
#mercosur economics ideas/neighborly development
		
		BRA_idea_mercosur_member_state = {
			on_add = { log = "[GetDateText]: [Root.GetName]: add idea BRA_idea_mercosur_member_state" }

			
			
			picture = mercosur_member
			
			modifier = {
				consumer_goods_factor = -0.03
				political_power_factor = -0.10
				trade_opinion_factor = 0.15
				MONTHLY_POPULATION = 0.001
				min_export = 0.005
			}
		}
	}
}