ideas = {
	country = {
	
		cartels_4 = {
			on_add = { log = "[GetDateText]: [Root.GetName]: add idea cartels_4" }
			allowed = {
				OR = {
					original_tag = MEX
					original_tag = GUA
					original_tag = BLZ
					original_tag = ELS
					original_tag = HON
					original_tag = NIC
					original_tag = COS
					original_tag = PAN
					original_tag = COL
					original_tag = VEN
					original_tag = ECU
					original_tag = PRU
					original_tag = BOL
					original_tag = GUY
					original_tag = SUR
					original_tag = BRA
					original_tag = PAR
					original_tag = URG
					original_tag = CHL
					original_tag = ARG
					original_tag = USA
				}
			}
			
			
			modifier = {
				political_power_factor = -0.30		
				corruption_cost_factor = 0.75
				industry_free_repair_factor = -0.5
				stability_factor = -0.20
				#conscription_factor = -0.20
				MONTHLY_POPULATION = -0.10
				army_morale_factor = -0.10
				army_org_factor = -0.10
			}
			
			allowed_civil_war = {
				always = yes
			}
			
		}
	
		cartels_3 = {
			on_add = { log = "[GetDateText]: [Root.GetName]: add idea cartels_3" }
			allowed = {
				OR = {
					original_tag = MEX
					original_tag = GUA
					original_tag = BLZ
					original_tag = ELS
					original_tag = HON
					original_tag = NIC
					original_tag = COS
					original_tag = PAN
					original_tag = COL
					original_tag = VEN
					original_tag = ECU
					original_tag = PRU
					original_tag = BOL
					original_tag = GUY
					original_tag = SUR
					original_tag = BRA
					original_tag = PAR
					original_tag = URG
					original_tag = CHL
					original_tag = ARG
					original_tag = USA
				}
			}
			
			
			modifier = {
				political_power_factor = -0.20		
				corruption_cost_factor = 0.5
				industry_free_repair_factor = -0.5
				stability_factor = -0.15
				#conscription_factor = -0.15
				MONTHLY_POPULATION = -0.05
				army_morale_factor = -0.05
				army_org_factor = -0.05
			}
			
			allowed_civil_war = {
				always = yes
			}
			
		}
	
		cartels_2 = {
			on_add = { log = "[GetDateText]: [Root.GetName]: add idea cartels_2" }
			allowed = {
				OR = {
					original_tag = MEX
					original_tag = GUA
					original_tag = BLZ
					original_tag = ELS
					original_tag = HON
					original_tag = NIC
					original_tag = COS
					original_tag = PAN
					original_tag = COL
					original_tag = VEN
					original_tag = ECU
					original_tag = PRU
					original_tag = BOL
					original_tag = GUY
					original_tag = SUR
					original_tag = BRA
					original_tag = PAR
					original_tag = URG
					original_tag = CHL
					original_tag = ARG
					original_tag = USA
				}
			}
			
			
			modifier = {
				political_power_factor = -0.15	
				corruption_cost_factor = 0.25
				industry_free_repair_factor = -0.25
				stability_factor = -0.10
				#conscription_factor = -0.5
				MONTHLY_POPULATION = -0.05
			}
			
			allowed_civil_war = {
				always = yes
			}
			
		}
	
		cartels_1 = {
			on_add = { log = "[GetDateText]: [Root.GetName]: add idea cartels_1" }
			allowed = {
				OR = {
					original_tag = MEX
					original_tag = GUA
					original_tag = BLZ
					original_tag = ELS
					original_tag = HON
					original_tag = NIC
					original_tag = COS
					original_tag = PAN
					original_tag = COL
					original_tag = VEN
					original_tag = ECU
					original_tag = PRU
					original_tag = BOL
					original_tag = GUY
					original_tag = SUR
					original_tag = BRA
					original_tag = PAR
					original_tag = URG
					original_tag = CHL
					original_tag = ARG
					original_tag = USA
				}
			}
			
			
			modifier = {
				political_power_factor = -0.10		
				corruption_cost_factor = 0.10
				stability_factor = -0.05
			}
			
			allowed_civil_war = {
				always = yes
			}
		}
	}
}