ideas = {

	country = {

		ETH_looming_famine = {
			on_add = { log = "[GetDateText]: [Root.GetName]: add idea ETH_looming_famine" }

			picture = looming_famine

			allowed = {
				original_tag = ETH
			}

			allowed_civil_war = {
				always = yes
			}

			

			modifier = {
				stability_weekly = -0.001
				army_morale_factor = -0.10
				political_power_factor = -0.15
				MONTHLY_POPULATION = -0.01
				drift_defence_factor = -0.125
			}
		}
		
		ETH_idea_famine_strikes = {
			on_add = { log = "[GetDateText]: [Root.GetName]: add idea ETH_idea_famine_strikes" }

			picture = famine

			allowed = {
				original_tag = ETH
			}

			allowed_civil_war = {
				always = yes
			}

			

			modifier = {
				stability_weekly = -0.001 
				army_morale_factor = -0.20
				political_power_factor = -0.30
				MONTHLY_POPULATION = -0.15
				drift_defence_factor = -0.25
			}
		}
		
		ETH_idea_stabilized_food_supply = {
			on_add = { log = "[GetDateText]: [Root.GetName]: add idea ETH_idea_stabilized_food_supply" }

			picture = Stabilized_Food_Supply

			allowed = {
				original_tag = ETH
			}

			allowed_civil_war = {
				always = yes
			}

			

			modifier = {
				stability_weekly = 0.001
				army_morale_Factor = 0.10
				political_power_factor = 0.10
			}
		}

		ETH_idea_monarchist = {
			on_add = { log = "[GetDateText]: [Root.GetName]: add idea ETH_idea_monarchist" }

			picture = ETH_crown

			allowed = {
				original_tag = ETH
			}

			allowed_civil_war = {
				always = yes
			}

			

			modifier = {
				nationalist_drift = 0.1
			}
		}
		
		ETH_idea_messebo = {
			on_add = { log = "[GetDateText]: [Root.GetName]: add idea ETH_idea_messebo" }
			
			picture = consumer_goods
			
			allowed = {
				original_tag = ETH
			}

			allowed_civil_war = {
				always = yes
			}
			
			modifier = {
				production_speed_infrastructure_factor = 0.25
			}
		}

		ETH_idea_cscec = {
			on_add = { log = "[GetDateText]: [Root.GetName]: add idea ETH_idea_CSCEC" }
			
			picture = ETH_CSCEC
			
			allowed = {
				original_tag = ETH
			}

			allowed_civil_war = {
				always = yes
			}

			modifier = {
				production_factory_efficiency_gain_factor = 0.1
				production_speed_buildings_factor = 0.1
			}
		}

		ETH_diplomacy_corps = {
			on_add = { log = "[GetDateText]: [Root.GetName]: add idea ETH_diplomacy_corps" }
			
			picture = deal_with_the_devil2
			
			allowed = {
				original_tag = ETH
			}

			allowed_civil_war = {
				always = yes
			}

			modifier = {
				political_power_gain = 0.25
			}
		}
		
		ETH_aircraft_investments = {
			on_add = { log = "[GetDateText]: [Root.GetName]: add idea ETH_aircraft_investments" }
			picture = air_bonus
			
			allowed = { 
				original_tag = ETH
			}
			
			
			
			modifier = {
				experience_gain_air = 0.10
				production_speed_air_base_factor = 0.15
			}
		}
		
		ETH_motorization_investments = {
			on_add = { log = "[GetDateText]: [Root.GetName]: add idea ETH_motorization_investments" }
			picture = motorized_focus
			
			allowed = { 
				original_tag = ETH
			}
			
			
			
			equipment_bonus = {
				util_vehicle_equipment = {
					build_cost_ic = -0.15
				}
			}
		}

		ETH_agricultural_investments = {
			on_add = { log = "[GetDateText]: [Root.GetName]: add idea ETH_agricultural_investments" }
			picture = agriculture
			
			allowed = { always = no }
			available = { }
			cancel = { }
			
			
			
			modifier = {
				monthly_population = 0.05
				consumer_goods_factor = -0.01
			}
		}		
	}
}
