ideas = {

	Infantry_Weapon_Company = {
	
		designer = yes
		
		SPR_cetme_infantry_weapon_company = {
			on_add = { log = "[GetDateText]: [Root.GetName]: add idea SPR_cetme_infantry_weapon_company" }
		
			picture = CETME_SPR
			

			available = {
				OR = {
					tag = SPR
					controls_state = 89
				}
			}
			visible = {
				OR = {
					tag = SPR
					controls_state = 89
				}
			}
			cost = 150
			
			removal_cost = 10
			
			research_bonus = {
				Cat_INF_WEP = 0.155
			}
			
			traits = {
				Cat_INF_WEP_5
			
			}
			ai_will_do = {
				factor = 0.5 #All countries need a land army, vehicles are part of modern warfare
				
				modifier = {
					num_of_military_factories > 5 #has the industry to take advantage of the company
					factor = 1
				}
				modifier = {
					is_major = yes #Majors project power
					factor = 1
				}
				modifier = {
					has_better_than_INF_WEP_5 = yes
					factor = 0
				}
				modifier = {
					is_researching_infantry_weapons = yes
					factor = 4000
				}
			}
			
		}
	}
	
	Vehicle_Company = {
	
		designer = yes
		
		SPR_santa_barbara_sistemas_vehicle_company = {
			on_add = { log = "[GetDateText]: [Root.GetName]: add idea SPR_santa_barbara_sistemas_vehicle_company" }
		
			picture = Santa_Barbara_Sistemas_SPR
			

			available = {
				OR = {
					tag = SPR
					controls_state = 91
				}
			}
			visible = {
				OR = {
					tag = SPR
					controls_state = 91
				}
			}
			cost = 150
			
			removal_cost = 10
			
			research_bonus = {
				Cat_AFV = 0.186
			}
			
			traits = {
				Cat_AFV_6
			
			}
			ai_will_do = {
				factor = 0.6 #All countries need a land army, vehicles are part of modern warfare
				
				modifier = {
					num_of_military_factories > 10 #has the industry to take advantage of the company
					factor = 1
				}
				modifier = {
					is_major = yes #Majors project power
					factor = 1
				}
				modifier = {
					has_better_than_AFV_6 = yes
					factor = 0
				}
				modifier = {
					is_researching_afv = yes
					factor = 4000
				}
			}
			
		}
	}
	
	Ship_Company = {
	
		designer = yes
		
		SPR_navantia_ship_company = {
			on_add = { log = "[GetDateText]: [Root.GetName]: add idea SPR_navantia_ship_company" }
		
			picture = Navantia_SPR
			

			available = {
				OR = {
					tag = SPR
					controls_state = 91
				}
			}
			visible = {
				OR = {
					tag = SPR
					controls_state = 91
				}
			}
			cost = 150
			
			removal_cost = 10
			
			research_bonus = {
				Cat_NAVAL_EQP = 0.217
			}
			
			traits = {
				Cat_NAVAL_EQP_7
			
			}
			ai_will_do = {
				factor = 0.7
				
				modifier = {
					has_navy_size = { size > 25 } #has a large navy
					factor = 1
				}
				modifier = {
					num_of_naval_factories > 3 #has the industry to take advantage of the company
					factor = 1
				}
				modifier = {
					is_major = yes #Majors project power
					factor = 1
				}
				modifier = {
					NOT = { #need to have ports
						any_owned_state = {
							is_coastal = yes
						}
					}
					factor = 10
				}
				modifier = {
					has_better_than_NAVAL_EQP_7 = yes
					factor = 0
				}
				modifier = {
					is_researching_naval_equipment = yes
					factor = 1000
				}
				modifier = {
					AND = {
						is_researching_carrier = yes
						has_CARRIER_designer = yes
					}
					factor = 0
				}
				modifier = {
					AND = {
						is_researching_surface_ship = yes
						has_SURFACE_SHIP_designer = yes
					}
					factor = 0
				}
			}
			
		}
	}
	
	Submarine_Company = {
	
		designer = yes
		
		SPR_navantia_submarine_company = {
			on_add = { log = "[GetDateText]: [Root.GetName]: add idea SPR_navantia_submarine_company" }
		
			picture = Navantia_SPR
			

			available = {
				OR = {
					tag = SPR
					controls_state = 91
				}
			}
			visible = {
				OR = {
					tag = SPR
					controls_state = 91
				}
			}
			cost = 150
			
			removal_cost = 10
			
			research_bonus = {
				Cat_D_SUB = 0.217
			}
			
			traits = {
				Cat_D_SUB_7
			
			}
			ai_will_do = {
				factor = 0.7
				
				modifier = {
					has_navy_size = { size > 25 } #has a large navy
					factor = 1
				}
				modifier = {
					num_of_naval_factories > 3 #has the industry to take advantage of the company
					factor = 1
				}
				modifier = {
					is_major = yes #Majors project power
						factor = 1
				}
				modifier = {
					NOT = { #need to have ports
						any_owned_state = {
						is_coastal = yes
						}
					}
					factor = 10
				}
				modifier = {
					has_better_than_D_SUB_7 = yes
					factor = 0
				}
				modifier = {
					is_researching_diesel_electric_sub = yes
					factor = 4000
				}
			}
			
		}
	}
	
	Aircraft_Company = {
	
		designer = yes
		
		SPR_airbus_defence_aircraft_company = {
			on_add = { log = "[GetDateText]: [Root.GetName]: add idea SPR_airbus_defence_aircraft_company" }
		
			picture = Airbus_Defence_SPR
			

			available = {
				OR = {
					tag = SPR
					controls_state = 91
				}
			}
			visible = {
				OR = {
					tag = SPR
					controls_state = 91
				}
			}
			cost = 150
			
			removal_cost = 10
			
			research_bonus = {
				CAT_FIXED_WING = 0.279
			}
			
			traits = {
				CAT_FIXED_WING_9
			
			}
			ai_will_do = {
				factor = 0.9 #Most countries don't have decent airforces
				
				modifier = {
					or = {
						has_tech = AS_Fighter2 #has semi-modern tech
						has_tech = MR_Fighter2
						has_tech = Strike_fighter2
						has_tech = L_Strike_fighter2
						has_tech = Air_UAV1
					}
					factor = 1
				}
				modifier = {
					or = {
						has_tech = strategic_bomber3 #has semi-modern tech, most countries dont have it
						has_tech = transport_plane2
						has_tech = naval_plane3
						has_tech = cas2
					}
					factor = 1
				}
				modifier = {
					is_major = yes #Majors project power
					factor = 1
				}
				modifier = {
					has_better_than_FIXED_WING_9 = yes
					factor = 0
				}
				modifier = {
					is_researching_fixed_wing = yes
					factor = 1000
				}
				modifier = {
					AND = {
						is_researching_fighters = yes
						has_FIGHTER_designer = yes
					}
					factor = 0
				}
				modifier = {
					AND = {
						is_researching_heavy_air = yes
						has_H_AIR_designer = yes
					}
					factor = 0
				}
				modifier = {
					AND = {
						is_researching_light_fighter = yes
						has_L_Fighter_designer = yes
					}
					factor = 0
				}
			}
			
		}
	}
	
	Helicopter_Company = {
	
		designer = yes
		
		SPR_airbus_helicopters_helicopter_company = {
			on_add = { log = "[GetDateText]: [Root.GetName]: add idea SPR_airbus_helicopters_helicopter_company" }
		
			picture = Airbus_Helicopters_SPR
			

			available = {
				OR = {
					tag = SPR
					controls_state = 91
				}
			}
			visible = {
				OR = {
					tag = SPR
					controls_state = 91
				}
			}
			cost = 150
			
			removal_cost = 10
			
			research_bonus = {
				Cat_HELI = 0.248
			}
			
			traits = {
				Cat_HELI_8
			
			}
			ai_will_do = {
				factor = 0.8 #Most countries don't have decent airforces
				
				modifier = {
					has_tech = attack_helicopter2 #has semi-modern tech, most countries dont have it
					factor = 1
				}
				modifier = {
					has_tech = transport_helicopter2 #has semi-modern tech, most countries dont have it
					factor = 1
				}
				modifier = {
					is_major = yes #Majors project power
					factor = 1
				}
				modifier = {
					has_better_than_HELI_8 = yes
					factor = 0
				}
				modifier = {
					is_researching_helicopters = yes
					factor = 4000
				}
			}
			
		}
	}
	
}
