areas = {
	europe = {
		continents = { 
			europe
		}
	}

	north_america = {
		continents = { 
			north_america 
		}
	}

	caribbean = {
		#continents = { 
		#	caribbean 
		# }
		strategic_regions = {
			53 # Caribbean Sea
		}
	}

	south_america = {
		continents = { 
			south_america 
		}
	}

	africa = {
		continents = { 
			africa 
		}
	}

	asia = {
		continents = { 
			asia 
		}
		strategic_regions = {
			526 # Chinese Spratlys
			801 # Vietnamese Spratlys
			802 # Eastern Spratlys
			816 # Southern Spratlys
		}
	}

	middle_east = {

		continents = { 
			middle_east 
		}
	}

	pacific = {
		strategic_regions = {
			105 # Hawaii
			180 # Micronesian Gap
			97  # Eastern Micronesia
			32  # South-Eastern Pacific
			84  # Bismarck Sea
			95  # West Emperor Sea
			94  # Mariana Region
			177 # Western North Pacific
			172 # Pacific Line Ridge
			78  # Phillipine Sea
			109 # Peruvian Coast
			160 # Phillipines
			83  # Solomon Sea
			167 # New Guinea
			91  # Arafura Sea
			178 # West Polynesia
			179 # French Polynesia
		}
	}

	oceania = {
		strategic_regions = {
			156 # Australia
			157 # New Zealand
			86  # Tasman Sea
			98  # Great Australian Bight
			81  # Coral Sea
		}
	}
	
}