state = {
	id = 674
	name = "STATE_674"
	manpower = 1332133
	state_category = state_02
	
	resources = {
		tungsten = 1.000
	}

	history = {
		owner = SOV
		victory_points = {
			11633 5 
		}
		victory_points = {
			714 3 
		}
		victory_points = {
			685 3 
		}
		victory_points = {
			11664 1 
		}
		
		buildings = {
			infrastructure = 2
			internet_station = 0
			industrial_complex = 0
		}
		
		add_core_of = SOV
		2017.1.1 = {
			#add_manpower = -7186
			buildings = {
				internet_station = 1
				industrial_complex = 1
			}
		}
	}

	provinces = {
		685 714 6733 9649 9674 9691 11633 11664 
	}
}