
state = {
	id = 695
	name = "STATE_695"
	resources = {
		oil = 1.000
		steel = 3.000
		aluminium = 3.000
	}

	history = {
		owner = UKR
		victory_points = {
			11683 5 
		}
		victory_points = {
			11670 5 
		}
		victory_points = {
			6597 3 
		}
		victory_points = {
			3757 1 
		}
		victory_points = {
			11546 1 
		}
		buildings = {
			infrastructure = 3
			internet_station = 1
			industrial_complex = 1
			dockyard = 2
			11670 = {
				naval_base = 5

			}

		}
		add_core_of = UKR
		add_core_of = NOV
		2017.1.1 = {
			buildings = {
				internet_station = 2
			}
			#add_manpower = -300060

		}

	}

	provinces = {
		741 754 3575 3755 3757 6597 9573 9698 9714 11546 11670 11683 11703 
	}
	manpower = 3600444
	buildings_max_level_factor = 1.000
	state_category = state_05
}
